Elitestek_Oscilloscope-bram/Efinity/la0_waveform.vcd
#0 $dumpon
$date today $end
$timescale 1 ns $end
$scope module top $end
$var wire 1 0 u_interpolation/src/div2Domain_shiftTwo $end
$var wire 8 1 u_interpolation/src/io_output_payload $end
$var wire 1 2 u_interpolation/src/io_output_ready $end
$var wire 1 3 u_interpolation/src/io_output_valid $end
$var wire 4 4 u_interpolation/src/div2Domain_si_0 $end
$var wire 4 5 u_interpolation/src/div2Domain_si_1 $end
$var wire 1 6 u_interpolation/src/div2Domain_useSame $end
$var wire 8 7 u_interpolation/io_src_in_payload $end
$var wire 1 8 u_interpolation/src_io_input_ready $end
$var wire 1 9 u_interpolation/clk $end
$upscope $end
$enddefinitions $end
#0
$dumpvars
00
b00010000 1
02
03
b0000 4
b0001 5
16
b00010001 7
18
09
$end
#1
08
#2
b11111000 7
18
#3
08
#4
18
#5
08
#6
18
#7
08
#8
18
#9
08
#10
18
#11
08
#12
18
#13
08
#14
18
#15
08
#16
18
#17
08
#18
18
#19
08
#20
18
#21
b00010001 1
08
#22
18
#23
b00001110 1
08
#24
b00001010 1
18
#25
b11110111 1
08
#26
b11111000 1
18
#27
b11110111 1
08
#28
18
#29
08
#30
18
#31
08
#32
18
#33
08
#34
18
#35
08
#36
18
#37
08
#38
18
#39
08
#40
18
#41
08
#42
18
#43
08
#44
18
#45
08
#46
18
#47
08
#48
18
#49
08
#50
18
#51
08
#52
18
#53
08
#54
18
#55
08
#56
18
#57
08
#58
18
#59
08
#60
18
#61
08
#62
18
#63
08
#64
18
#65
08
#66
18
#67
08
#68
18
#69
08
#70
18
#71
08
#72
18
#73
08
#74
18
#75
08
#76
18
#77
08
#78
18
#79
08
#80
18
#81
08
#82
18
#83
08
#84
18
#85
08
#86
18
#87
08
#88
18
#89
08
#90
18
#91
08
#92
18
#93
08
#94
18
#95
08
#96
18
#97
08
#98
18
#99
08
#100
18
#101
08
#102
18
#103
08
#104
18
#105
08
#106
18
#107
08
#108
18
#109
08
#110
18
#111
12
08
#112
b11101110 7
18
#113
08
#114
b11101001 7
18
#115
08
#116
b11100011 7
18
#117
08
#118
b11011101 7
18
#119
08
#120
b11011001 7
18
#121
08
#122
b11010100 7
18
#123
08
#124
b11001101 7
18
#125
08
#126
18
#127
08
#128
b11001100 7
18
#129
13
08
#130
b11000011 7
18
#131
b11111000 1
08
#132
18
#133
b11110111 1
08
#134
b11110101 1
b11000101 7
18
#135
b11101101 1
08
#136
b11000001 7
18
#137
b11101000 1
08
#138
b11100111 1
18
#139
b11100010 1
08
#140
b11100001 1
b11000011 7
18
#141
b11011100 1
08
#142
18
#143
b11011000 1
08
#144
b11000101 7
18
#145
b11010011 1
08
#146
b11010010 1
b11000110 7
18
#147
b11001100 1
08
#148
b11001101 1
18
#149
08
#150
b11001111 7
18
#151
b11001011 1
08
#152
b11001001 1
b11010010 7
18
#153
b11000010 1
08
#154
b11010011 7
18
#155
b11000011 1
08
#156
b11011000 7
18
#157
b11000100 1
08
#158
b11100010 7
18
#159
b11000000 1
08
#160
18
#161
b11000001 1
08
#162
b11101010 7
18
#163
b11000010 1
08
#164
b11101111 7
18
#165
b11000011 1
08
#166
b11110100 7
18
#167
b11000101 1
08
#168
b11111100 7
18
#169
08
#170
b00000001 7
18
#171
b11000110 1
08
#172
b11001000 1
b00000101 7
18
#173
b11001111 1
08
#174
b00010000 7
18
#175
b11010010 1
08
#176
b00010100 7
18
#177
b11010011 1
08
#178
b00010111 7
18
#179
b11011001 1
08
#180
b11011010 1
b00011101 7
18
#181
b11100001 1
08
#182
b00100111 7
18
#183
b11100010 1
08
#184
b11100011 1
b00101000 7
18
#185
b11101010 1
08
#186
b11101011 1
b00101111 7
18
#187
b11101111 1
08
#188
b00110001 7
18
#189
b11110100 1
08
#190
b11110101 1
b00110110 7
18
#191
b11111100 1
08
#192
b11111101 1
b00111011 7
18
#193
b00000001 1
08
#194
b00111110 7
18
#195
b00000110 1
08
#196
b00000111 1
b00111100 7
18
#197
b00010000 1
08
#198
b01000000 7
18
#199
b00010100 1
08
#200
b01000011 7
18
#201
b00010111 1
08
#202
b00011000 1
b01000000 7
18
#203
b00011110 1
08
#204
b00011111 1
b00111111 7
18
#205
b00100111 1
08
#206
b00100110 1
b01000001 7
18
#207
b00101000 1
08
#208
b00101001 1
b00111110 7
18
#209
b00101111 1
08
#210
b00111101 7
18
#211
b00110001 1
08
#212
b00110010 1
b00111010 7
18
#213
b00110110 1
08
#214
b00110111 1
b00110101 7
18
#215
b00111011 1
08
#216
b00110010 7
18
#217
b00111101 1
08
#218
b00101110 7
18
#219
b00111100 1
08
#220
b00100111 7
18
#221
b01000000 1
08
#222
b00100110 7
18
#223
b01000010 1
08
#224
b00100001 7
18
#225
b00111111 1
08
#226
b00011000 7
18
#227
08
#228
b00010010 7
18
#229
b01000000 1
08
#230
b00001111 7
18
#231
b00111101 1
08
#232
b00000110 7
18
#233
b00111100 1
08
#234
b00000001 7
18
#235
b00111001 1
08
#236
b00111000 1
b11111011 7
18
#237
b00110100 1
08
#238
b11110101 7
18
#239
b00110001 1
08
#240
b11110000 7
18
#241
b00101101 1
08
#242
b00101100 1
b11101010 7
18
#243
b00100110 1
08
#244
b11100000 7
18
#245
b00100101 1
08
#246
b11011111 7
18
#247
b00100000 1
08
#248
b00011111 1
b11011010 7
18
#249
b00010111 1
08
#250
b00010110 1
b11010001 7
18
#251
b00010001 1
08
#252
b11001111 7
18
#253
b00001110 1
08
#254
b00001100 1
b11001110 7
18
#255
b00000101 1
08
#256
b11001001 7
18
#257
b00000000 1
08
#258
b11111111 1
b11000101 7
18
#259
b11111010 1
08
#260
b11111001 1
b11000100 7
18
#261
b11110100 1
08
#262
b11000010 7
18
#263
b11101111 1
08
#264
b11101110 1
b11000011 7
18
#265
b11101000 1
08
#266
b11100111 1
b11000010 7
18
#267
b11011111 1
08
#268
b11000000 7
18
#269
b11011110 1
08
#270
b11000101 7
18
#271
b11011001 1
08
#272
b11010111 1
b11000110 7
18
#273
b11010000 1
08
#274
b11000011 7
18
#275
b11001110 1
08
#276
b11001000 7
18
#277
b11001101 1
08
#278
b11001100 1
b11010000 7
18
#279
b11001000 1
08
#280
b11001111 7
18
#281
b11000100 1
08
#282
b11010101 7
18
#283
b11000011 1
08
#284
b11011001 7
18
#285
b11000010 1
08
#286
b11011111 7
18
#287
08
#288
b11100100 7
18
#289
b11000001 1
08
#290
b11101011 7
18
#291
b11000000 1
08
#292
b11000001 1
b11101100 7
18
#293
b11000101 1
08
#294
b11110110 7
18
#295
08
#296
b11111101 7
18
#297
b11000011 1
08
#298
b11111110 7
18
#299
b11001000 1
08
#300
b11001001 1
b00000111 7
18
#301
b11001111 1
08
#302
b00010001 7
18
#303
08
#304
b11010000 1
18
#305
b11010101 1
08
#306
b00011001 7
18
#307
b11011001 1
08
#308
b11011010 1
b00011110 7
18
#309
b11011111 1
08
#310
b00100100 7
18
#311
b11100100 1
08
#312
b11100101 1
b00101010 7
18
#313
b11101010 1
08
#314
b00110000 7
18
#315
b11101100 1
08
#316
b11101110 1
b00101110 7
18
#317
b11110110 1
08
#318
b11110111 1
b00111000 7
18
#319
b11111100 1
08
#320
b00111100 7
18
#321
b11111110 1
08
#322
b11111111 1
b00111011 7
18
#323
b00001000 1
08
#324
b00001001 1
b00111110 7
18
#325
b00010000 1
08
#326
b01000001 7
18
#327
b00010001 1
08
#328
b00010010 1
b01000000 7
18
#329
b00011001 1
08
#330
b01000010 7
18
#331
b00011110 1
08
#332
b00011111 1
b01000000 7
18
#333
b00100100 1
08
#334
b00100101 1
b00111110 7
18
#335
b00101010 1
08
#336
b00101011 1
b01000000 7
18
#337
b00101111 1
08
#338
b00111110 7
18
#339
b00101110 1
08
#340
b00110000 1
b00110111 7
18
#341
b00111000 1
08
#342
18
#343
b00111011 1
08
#344
b00110011 7
18
#345
08
#346
b00101011 7
18
#347
b00111110 1
08
#348
b00101001 7
18
#349
b01000000 1
08
#350
b00100111 7
18
#351
08
#352
b00011110 7
18
#353
b01000001 1
08
#354
b00011010 7
18
#355
b00111111 1
08
#356
b00010011 7
18
#357
b00111110 1
08
#358
b00001100 7
18
#359
b00111111 1
08
#360
b00001000 7
18
#361
b00111101 1
08
#362
b00111100 1
b00000010 7
18
#363
b00110111 1
08
#364
b11111000 7
18
#365
b00110110 1
08
#366
b11110111 7
18
#367
b00110010 1
08
#368
b00110001 1
b11110001 7
18
#369
b00101010 1
08
#370
b11100111 7
18
#371
b00101000 1
08
#372
b11100010 7
18
#373
b00100110 1
08
#374
b00100100 1
b11100000 7
18
#375
b00011101 1
08
#376
b11010111 7
18
#377
b00011001 1
08
#378
b00011000 1
b11010011 7
18
#379
b00010010 1
08
#380
b00010001 1
b11010000 7
18
#381
b00001011 1
08
#382
b11001011 7
18
#383
b00000111 1
08
#384
b00000110 1
18
#385
b00000000 1
08
#386
b11111111 1
b11000110 7
18
#387
b11110111 1
08
#388
b11000001 7
18
#389
b11110110 1
08
#390
b11110101 1
b11000100 7
18
#391
b11110000 1
08
#392
b11101110 1
18
#393
b11100110 1
08
#394
b11100101 1
b10111111 7
18
#395
b11100001 1
08
#396
b11000010 7
18
#397
b11011111 1
08
#398
b11011101 1
b11000110 7
18
#399
b11010110 1
08
#400
b11000011 7
18
#401
b11010010 1
08
#402
b11000101 7
18
#403
b11001111 1
08
#404
b11001110 1
b11001001 7
18
#405
b11001011 1
08
#406
b11001101 7
18
#407
b11001010 1
08
#408
b11001001 1
b11010001 7
18
#409
b11000101 1
08
#410
b11000100 1
b11010110 7
18
#411
b11000001 1
08
#412
18
#413
b11000100 1
08
#414
b11100001 7
18
#415
b11000011 1
08
#416
b11000010 1
b11100101 7
18
#417
b10111111 1
08
#418
b11101000 7
18
#419
b11000010 1
08
#420
b11000011 1
b11101110 7
18
#421
b11000101 1
08
#422
b11110111 7
18
#423
b11000011 1
08
#424
b11111010 7
18
#425
b11000101 1
08
#426
b00000000 7
18
#427
b11001001 1
08
#428
b00001000 7
18
#429
b11001101 1
08
#430
b00001110 7
18
#431
b11010001 1
02
08
#432
b11010010 1
03
18
#433
b11010101 1
08
#434
18
#435
b11010111 1
08
#436
b11011000 1
18
#437
b11100001 1
08
#438
18
#439
b11100101 1
08
#440
18
#441
b11101000 1
08
#442
b11101001 1
18
#443
b11101110 1
08
#444
b11110000 1
18
#445
b11110111 1
08
#446
18
#447
b11111010 1
08
#448
b11111011 1
18
#449
b00000000 1
08
#450
b00000001 1
18
#451
b00001000 1
08
#452
b00001001 1
18
#453
b00001110 1
08
#454
b00001101 1
18
#455
b00001110 1
08
#456
b00001101 1
18
#457
b00001110 1
08
#458
b00001101 1
b11110000 7
18
#459
b00001110 1
08
#460
b00001101 1
18
#461
b00001110 1
08
#462
b00001101 1
18
#463
b00001110 1
08
#464
b00001101 1
18
#465
b00001110 1
08
#466
b00001101 1
18
#467
b00001110 1
08
#468
b00001101 1
18
#469
b00001110 1
08
#470
b00001101 1
18
#471
b00001110 1
08
#472
b00001101 1
18
#473
b00001110 1
08
#474
b00001101 1
18
#475
b00001110 1
08
#476
b00001101 1
18
#477
b00001110 1
08
#478
b00001111 1
18
#479
b00001010 1
08
#480
b00000110 1
18
#481
b11101111 1
08
#482
b11110000 1
18
#483
b11101111 1
08
#484
18
#485
08
#486
18
#487
08
#488
18
#489
08
#490
18
#491
08
#492
18
#493
08
#494
18
#495
08
#496
18
#497
08
#498
18
#499
08
#500
18
#501
08
#502
18
#503
08
#504
18
#505
08
#506
18
#507
08
#508
18
#509
08
#510
18
#511
08
#512
18
#513
08
#514
18
#515
08
#516
18
#517
08
#518
18
#519
08
#520
18
#521
08
#522
18
#523
08
#524
18
#525
08
#526
18
#527
08
#528
18
#529
08
#530
18
#531
08
#532
18
#533
08
#534
18
#535
08
#536
18
#537
08
#538
18
#539
08
#540
18
#541
08
#542
18
#543
08
#544
18
#545
08
#546
18
#547
08
#548
18
#549
08
#550
18
#551
08
#552
18
#553
08
#554
18
#555
08
#556
18
#557
08
#558
18
#559
08
#560
18
#561
08
#562
18
#563
08
#564
18
#565
08
#566
18
#567
08
#568
12
18
#569
08
#570
b11101010 7
18
#571
08
#572
b11100000 7
18
#573
08
#574
b11011111 7
18
#575
08
#576
b11011010 7
18
#577
08
#578
b11010001 7
18
#579
08
#580
b11001111 7
18
#581
08
#582
b11001110 7
18
#583
08
#584
b11001001 7
18
#585
13
08
#586
b11000101 7
18
#587
08
#588
b11000100 7
18
#589
b11110000 1
08
#590
b11000010 7
18
#591
b11101111 1
08
#592
b11101110 1
b11000011 7
18
#593
b11101000 1
08
#594
b11100111 1
b11000010 7
18
#595
b11011111 1
08
#596
b11000000 7
18
#597
b11011110 1
08
#598
b11000101 7
18
#599
b11011001 1
08
#600
b11010111 1
b11000110 7
18
#601
b11010000 1
08
#602
b11000011 7
18
#603
b11001110 1
08
#604
b11001000 7
18
#605
b11001101 1
08
#606
b11001100 1
b11010000 7
18
#607
b11001000 1
08
#608
b11001111 7
18
#609
b11000100 1
08
#610
b11010101 7
18
#611
b11000011 1
08
#612
b11011001 7
18
#613
b11000010 1
08
#614
b11011111 7
18
#615
08
#616
b11100100 7
18
#617
b11000001 1
08
#618
b11101011 7
18
#619
b11000000 1
08
#620
b11000001 1
b11101100 7
18
#621
b11000101 1
08
#622
b11110110 7
18
#623
08
#624
b11111101 7
18
#625
b11000011 1
08
#626
b11111110 7
18
#627
b11001000 1
08
#628
b11001001 1
b00000111 7
18
#629
b11001111 1
08
#630
b00010001 7
18
#631
08
#632
b11010000 1
18
#633
b11010101 1
08
#634
b00011001 7
18
#635
b11011001 1
08
#636
b11011010 1
b00011110 7
18
#637
b11011111 1
08
#638
b00100100 7
18
#639
b11100100 1
08
#640
b11100101 1
b00101010 7
18
#641
b11101010 1
08
#642
b00110000 7
18
#643
b11101100 1
08
#644
b11101110 1
b00101110 7
18
#645
b11110110 1
08
#646
b11110111 1
b00111000 7
18
#647
b11111100 1
08
#648
b00111100 7
18
#649
b11111110 1
08
#650
b11111111 1
b00111011 7
18
#651
b00001000 1
08
#652
b00001001 1
b00111110 7
18
#653
b00010000 1
08
#654
b01000001 7
18
#655
b00010001 1
08
#656
b00010010 1
b01000000 7
18
#657
b00011001 1
08
#658
b01000010 7
18
#659
b00011110 1
08
#660
b00011111 1
b01000000 7
18
#661
b00100100 1
08
#662
b00100101 1
b00111110 7
18
#663
b00101010 1
08
#664
b00101011 1
b01000000 7
18
#665
b00101111 1
08
#666
b00111110 7
18
#667
b00101110 1
08
#668
b00110000 1
b00110111 7
18
#669
b00111000 1
08
#670
18
#671
b00111011 1
08
#672
b00110011 7
18
#673
08
#674
b00101011 7
18
#675
b00111110 1
08
#676
b00101001 7
18
#677
b01000000 1
08
#678
b00100111 7
18
#679
08
#680
b00011110 7
18
#681
b01000001 1
08
#682
b00011010 7
18
#683
b00111111 1
08
#684
b00010011 7
18
#685
b00111110 1
08
#686
b00001100 7
18
#687
b00111111 1
08
#688
b00001000 7
18
#689
b00111101 1
08
#690
b00111100 1
b00000010 7
18
#691
b00110111 1
08
#692
b11111000 7
18
#693
b00110110 1
08
#694
b11110111 7
18
#695
b00110010 1
08
#696
b00110001 1
b11110001 7
18
#697
b00101010 1
08
#698
b11100111 7
18
#699
b00101000 1
08
#700
b11100010 7
18
#701
b00100110 1
08
#702
b00100100 1
b11100000 7
18
#703
b00011101 1
08
#704
b11010111 7
18
#705
b00011001 1
08
#706
b00011000 1
b11010011 7
18
#707
b00010010 1
08
#708
b00010001 1
b11010000 7
18
#709
b00001011 1
08
#710
b11001011 7
18
#711
b00000111 1
08
#712
b00000110 1
18
#713
b00000000 1
08
#714
b11111111 1
b11000110 7
18
#715
b11110111 1
08
#716
b11000001 7
18
#717
b11110110 1
08
#718
b11110101 1
b11000100 7
18
#719
b11110000 1
08
#720
b11101110 1
18
#721
b11100110 1
08
#722
b11100101 1
b10111111 7
18
#723
b11100001 1
08
#724
b11000010 7
18
#725
b11011111 1
08
#726
b11011101 1
b11000110 7
18
#727
b11010110 1
08
#728
b11000011 7
18
#729
b11010010 1
08
#730
b11000101 7
18
#731
b11001111 1
08
#732
b11001110 1
b11001001 7
18
#733
b11001011 1
08
#734
b11001101 7
18
#735
b11001010 1
08
#736
b11001001 1
b11010001 7
18
#737
b11000101 1
08
#738
b11000100 1
b11010110 7
18
#739
b11000001 1
08
#740
18
#741
b11000100 1
08
#742
b11100001 7
18
#743
b11000011 1
08
#744
b11000010 1
b11100101 7
18
#745
b10111111 1
08
#746
b11101000 7
18
#747
b11000010 1
08
#748
b11000011 1
b11101110 7
18
#749
b11000101 1
08
#750
b11110111 7
18
#751
b11000011 1
08
#752
b11111010 7
18
#753
b11000101 1
08
#754
b00000000 7
18
#755
b11001001 1
08
#756
b00001000 7
18
#757
b11001101 1
08
#758
b00001110 7
18
#759
b11010001 1
08
#760
b11010010 1
b00010011 7
18
#761
b11010101 1
08
#762
b00011010 7
18
#763
b11010111 1
08
#764
b11011000 1
b00011011 7
18
#765
b11100001 1
08
#766
b00100110 7
18
#767
b11100101 1
08
#768
b00101011 7
18
#769
b11101000 1
08
#770
b11101001 1
b00101101 7
18
#771
b11101110 1
08
#772
b11110000 1
b00110000 7
18
#773
b11110111 1
08
#774
b00111001 7
18
#775
b11111010 1
08
#776
b11111011 1
18
#777
b00000000 1
08
#778
b00000001 1
b00111101 7
18
#779
b00001000 1
08
#780
b00001001 1
b00111111 7
18
#781
b00001110 1
08
#782
b00111110 7
18
#783
b00010011 1
08
#784
b00010100 1
b01000010 7
18
#785
b00011001 1
08
#786
b01000011 7
18
#787
b00011100 1
08
#788
b00011101 1
b00111101 7
18
#789
b00100110 1
08
#790
b00100111 1
b01000000 7
18
#791
b00101011 1
08
#792
b01000001 7
18
#793
b00101101 1
08
#794
b00111011 7
18
#795
b00110000 1
08
#796
b00110010 1
b00111001 7
18
#797
b00111000 1
08
#798
b00111000 7
18
#799
b00111001 1
08
#800
b00110000 7
18
#801
b00111101 1
08
#802
b00101101 7
18
#803
b00111110 1
08
#804
b00101010 7
18
#805
08
#806
b00100100 7
18
#807
b01000010 1
08
#808
b00100000 7
18
#809
08
#810
b01000001 1
b00011011 7
18
#811
b00111101 1
08
#812
b00010000 7
18
#813
b01000000 1
08
#814
b00001110 7
18
#815
08
#816
b00111111 1
b00001001 7
18
#817
b00111010 1
08
#818
b11111111 7
18
#819
b00111001 1
08
#820
b11111010 7
18
#821
b00110111 1
08
#822
b00110110 1
b11111000 7
18
#823
b00101111 1
08
#824
b11101110 7
18
#825
b00101100 1
08
#826
b11101001 7
18
#827
b00101001 1
08
#828
b00101000 1
b11100011 7
18
#829
b00100011 1
08
#830
b11011101 7
18
#831
b00011111 1
08
#832
b11011001 7
18
#833
b00011001 1
08
#834
b00011000 1
b11010100 7
18
#835
b00001111 1
08
#836
b11001101 7
18
#837
b00001101 1
08
#838
18
#839
b00001000 1
08
#840
b00000110 1
b11001100 7
18
#841
b11111110 1
08
#842
b11111101 1
b11000011 7
18
#843
b11111001 1
08
#844
18
#845
b11110111 1
08
#846
b11110101 1
b11000101 7
18
#847
b11101101 1
08
#848
b11000001 7
18
#849
b11101000 1
08
#850
b11100111 1
18
#851
b11100010 1
08
#852
b11100001 1
b11000011 7
18
#853
b11011100 1
08
#854
18
#855
b11011000 1
08
#856
b11000101 7
18
#857
b11010011 1
08
#858
b11010010 1
b11000110 7
18
#859
b11001100 1
08
#860
b11001101 1
18
#861
08
#862
b11001111 7
18
#863
b11001011 1
08
#864
b11001001 1
b11010010 7
18
#865
b11000010 1
08
#866
b11010011 7
18
#867
b11000011 1
08
#868
b11011000 7
18
#869
b11000100 1
08
#870
b11100010 7
18
#871
b11000000 1
08
#872
18
#873
b11000001 1
08
#874
b11101010 7
18
#875
b11000010 1
08
#876
b11101111 7
18
#877
b11000011 1
08
#878
b11110100 7
18
#879
b11000101 1
08
#880
b11111100 7
18
#881
08
#882
b00000001 7
18
#883
b11000110 1
08
#884
b11001000 1
b00000101 7
18
#885
b11001111 1
08
#886
b00010000 7
18
#887
b11010010 1
02
08
#888
03
18
#889
b11010011 1
08
#890
18
#891
b11011001 1
08
#892
b11011010 1
18
#893
b11100001 1
08
#894
18
#895
b11100010 1
08
#896
b11100011 1
18
#897
b11101010 1
08
#898
b11101011 1
18
#899
b11101111 1
08
#900
18
#901
b11110100 1
08
#902
b11110101 1
18
#903
b11111100 1
08
#904
b11111101 1
18
#905
b00000001 1
08
#906
18
#907
b00000110 1
08
#908
b00000111 1
18
#909
b00010000 1
08
#910
b00001111 1
18
#911
08
#912
18
#913
08
#914
b11110001 7
18
#915
08
#916
18
#917
08
#918
18
#919
08
#920
18
#921
08
#922
18
#923
08
#924
18
#925
08
#926
18
#927
08
#928
18
#929
08
#930
18
#931
08
#932
18
#933
b00010000 1
08
#934
b00010001 1
18
#935
b00001100 1
08
#936
b00001000 1
18
#937
b11110000 1
08
#938
b11110001 1
18
#939
b11110000 1
08
#940
18
#941
08
#942
18
#943
08
#944
18
#945
08
#946
18
#947
08
#948
18
#949
08
#950
18
#951
08
#952
18
#953
08
#954
18
#955
08
#956
18
#957
08
#958
18
#959
08
#960
18
#961
08
#962
18
#963
08
#964
18
#965
08
#966
18
#967
08
#968
18
#969
08
#970
18
#971
08
#972
18
#973
08
#974
18
#975
08
#976
18
#977
08
#978
18
#979
08
#980
18
#981
08
#982
18
#983
08
#984
18
#985
08
#986
18
#987
08
#988
18
#989
08
#990
18
#991
08
#992
18
#993
08
#994
18
#995
08
#996
18
#997
08
#998
18
#999
08
#1000
18
#1001
08
#1002
18
#1003
08
#1004
18
#1005
08
#1006
18
#1007
08
#1008
18
#1009
08
#1010
18
#1011
08
#1012
18
#1013
08
#1014
18
#1015
08
#1016
18
#1017
08
#1018
18
#1019
08
#1020
18
#1021
08
#1022
18
#1023
08
#1024
12
18
#1025
08
#1026
b11100111 7
18
#1027
08
#1028
b11100010 7
18
#1029
08
#1030
b11100000 7
18
#1031
08
#1032
b11010111 7
18
#1033
08
#1034
b11010011 7
18
#1035
08
#1036
b11010000 7
18
#1037
08
#1038
b11001011 7
18
#1039
08
#1040
18
#1041
13
08
#1042
b11000110 7
18
#1043
08
#1044
b11000001 7
18
#1045
b11110001 1
08
#1046
b11000100 7
18
#1047
b11110000 1
08
#1048
b11101110 1
18
#1049
b11100110 1
08
#1050
b11100101 1
b10111111 7
18
#1051
b11100001 1
08
#1052
b11000010 7
18
#1053
b11011111 1
08
#1054
b11011101 1
b11000110 7
18
#1055
b11010110 1
08
#1056
b11000011 7
18
#1057
b11010010 1
08
#1058
b11000101 7
18
#1059
b11001111 1
08
#1060
b11001110 1
b11001001 7
18
#1061
b11001011 1
08
#1062
b11001101 7
18
#1063
b11001010 1
08
#1064
b11001001 1
b11010001 7
18
#1065
b11000101 1
08
#1066
b11000100 1
b11010110 7
18
#1067
b11000001 1
08
#1068
18
#1069
b11000100 1
08
#1070
b11100001 7
18
#1071
b11000011 1
08
#1072
b11000010 1
b11100101 7
18
#1073
b10111111 1
08
#1074
b11101000 7
18
#1075
b11000010 1
08
#1076
b11000011 1
b11101110 7
18
#1077
b11000101 1
08
#1078
b11110111 7
18
#1079
b11000011 1
08
#1080
b11111010 7
18
#1081
b11000101 1
08
#1082
b00000000 7
18
#1083
b11001001 1
08
#1084
b00001000 7
18
#1085
b11001101 1
08
#1086
b00001110 7
18
#1087
b11010001 1
08
#1088
b11010010 1
b00010011 7
18
#1089
b11010101 1
08
#1090
b00011010 7
18
#1091
b11010111 1
08
#1092
b11011000 1
b00011011 7
18
#1093
b11100001 1
08
#1094
b00100110 7
18
#1095
b11100101 1
08
#1096
b00101011 7
18
#1097
b11101000 1
08
#1098
b11101001 1
b00101101 7
18
#1099
b11101110 1
08
#1100
b11110000 1
b00110000 7
18
#1101
b11110111 1
08
#1102
b00111001 7
18
#1103
b11111010 1
08
#1104
b11111011 1
18
#1105
b00000000 1
08
#1106
b00000001 1
b00111101 7
18
#1107
b00001000 1
08
#1108
b00001001 1
b00111111 7
18
#1109
b00001110 1
08
#1110
b00111110 7
18
#1111
b00010011 1
08
#1112
b00010100 1
b01000010 7
18
#1113
b00011001 1
08
#1114
b01000011 7
18
#1115
b00011100 1
08
#1116
b00011101 1
b00111101 7
18
#1117
b00100110 1
08
#1118
b00100111 1
b01000000 7
18
#1119
b00101011 1
08
#1120
b01000001 7
18
#1121
b00101101 1
08
#1122
b00111011 7
18
#1123
b00110000 1
08
#1124
b00110010 1
b00111001 7
18
#1125
b00111000 1
08
#1126
b00111000 7
18
#1127
b00111001 1
08
#1128
b00110000 7
18
#1129
b00111101 1
08
#1130
b00101101 7
18
#1131
b00111110 1
08
#1132
b00101010 7
18
#1133
08
#1134
b00100100 7
18
#1135
b01000010 1
08
#1136
b00100000 7
18
#1137
08
#1138
b01000001 1
b00011011 7
18
#1139
b00111101 1
08
#1140
b00010000 7
18
#1141
b01000000 1
08
#1142
b00001110 7
18
#1143
08
#1144
b00111111 1
b00001001 7
18
#1145
b00111010 1
08
#1146
b11111111 7
18
#1147
b00111001 1
08
#1148
b11111010 7
18
#1149
b00110111 1
08
#1150
b00110110 1
b11111000 7
18
#1151
b00101111 1
08
#1152
b11101110 7
18
#1153
b00101100 1
08
#1154
b11101001 7
18
#1155
b00101001 1
08
#1156
b00101000 1
b11100011 7
18
#1157
b00100011 1
08
#1158
b11011101 7
18
#1159
b00011111 1
08
#1160
b11011001 7
18
#1161
b00011001 1
08
#1162
b00011000 1
b11010100 7
18
#1163
b00001111 1
08
#1164
b11001101 7
18
#1165
b00001101 1
08
#1166
18
#1167
b00001000 1
08
#1168
b00000110 1
b11001100 7
18
#1169
b11111110 1
08
#1170
b11111101 1
b11000011 7
18
#1171
b11111001 1
08
#1172
18
#1173
b11110111 1
08
#1174
b11110101 1
b11000101 7
18
#1175
b11101101 1
08
#1176
b11000001 7
18
#1177
b11101000 1
08
#1178
b11100111 1
18
#1179
b11100010 1
08
#1180
b11100001 1
b11000011 7
18
#1181
b11011100 1
08
#1182
18
#1183
b11011000 1
08
#1184
b11000101 7
18
#1185
b11010011 1
08
#1186
b11010010 1
b11000110 7
18
#1187
b11001100 1
08
#1188
b11001101 1
18
#1189
08
#1190
b11001111 7
18
#1191
b11001011 1
08
#1192
b11001001 1
b11010010 7
18
#1193
b11000010 1
08
#1194
b11010011 7
18
#1195
b11000011 1
08
#1196
b11011000 7
18
#1197
b11000100 1
08
#1198
b11100010 7
18
#1199
b11000000 1
08
#1200
18
#1201
b11000001 1
08
#1202
b11101010 7
18
#1203
b11000010 1
08
#1204
b11101111 7
18
#1205
b11000011 1
08
#1206
b11110100 7
18
#1207
b11000101 1
08
#1208
b11111100 7
18
#1209
08
#1210
b00000001 7
18
#1211
b11000110 1
08
#1212
b11001000 1
b00000101 7
18
#1213
b11001111 1
08
#1214
b00010000 7
18
#1215
b11010010 1
08
#1216
b00010100 7
18
#1217
b11010011 1
08
#1218
b00010111 7
18
#1219
b11011001 1
08
#1220
b11011010 1
b00011101 7
18
#1221
b11100001 1
08
#1222
b00100111 7
18
#1223
b11100010 1
08
#1224
b11100011 1
b00101000 7
18
#1225
b11101010 1
08
#1226
b11101011 1
b00101111 7
18
#1227
b11101111 1
08
#1228
b00110001 7
18
#1229
b11110100 1
08
#1230
b11110101 1
b00110110 7
18
#1231
b11111100 1
08
#1232
b11111101 1
b00111011 7
18
#1233
b00000001 1
08
#1234
b00111110 7
18
#1235
b00000110 1
08
#1236
b00000111 1
b00111100 7
18
#1237
b00010000 1
08
#1238
b01000000 7
18
#1239
b00010100 1
08
#1240
b01000011 7
18
#1241
b00010111 1
08
#1242
b00011000 1
b01000000 7
18
#1243
b00011110 1
08
#1244
b00011111 1
b00111111 7
18
#1245
b00100111 1
08
#1246
b00100110 1
b01000001 7
18
#1247
b00101000 1
08
#1248
b00101001 1
b00111110 7
18
#1249
b00101111 1
08
#1250
b00111101 7
18
#1251
b00110001 1
08
#1252
b00110010 1
b00111010 7
18
#1253
b00110110 1
08
#1254
b00110111 1
b00110101 7
18
#1255
b00111011 1
08
#1256
b00110010 7
18
#1257
b00111101 1
08
#1258
b00101110 7
18
#1259
b00111100 1
08
#1260
b00100111 7
18
#1261
b01000000 1
08
#1262
b00100110 7
18
#1263
b01000010 1
08
#1264
b00100001 7
18
#1265
b00111111 1
08
#1266
b00011000 7
18
#1267
08
#1268
b00010010 7
18
#1269
b01000000 1
08
#1270
b00001111 7
18
#1271
b00111101 1
08
#1272
b00000110 7
18
#1273
b00111100 1
08
#1274
b00000001 7
18
#1275
b00111001 1
08
#1276
b00111000 1
b11111011 7
18
#1277
b00110100 1
08
#1278
b11110101 7
18
#1279
b00110001 1
08
#1280
b11110000 7
18
#1281
b00101101 1
08
#1282
b00101100 1
b11101010 7
18
#1283
b00100110 1
08
#1284
b11100000 7
18
#1285
b00100101 1
08
#1286
b11011111 7
18
#1287
b00100000 1
08
#1288
b00011111 1
b11011010 7
18
#1289
b00010111 1
08
#1290
b00010110 1
b11010001 7
18
#1291
b00010001 1
08
#1292
b11001111 7
18
#1293
b00001110 1
08
#1294
b00001100 1
b11001110 7
18
#1295
b00000101 1
08
#1296
b11001001 7
18
#1297
b00000000 1
08
#1298
b11111111 1
b11000101 7
18
#1299
b11111010 1
08
#1300
b11111001 1
b11000100 7
18
#1301
b11110100 1
08
#1302
b11000010 7
18
#1303
b11101111 1
08
#1304
b11101110 1
b11000011 7
18
#1305
b11101000 1
08
#1306
b11100111 1
b11000010 7
18
#1307
b11011111 1
08
#1308
b11000000 7
18
#1309
b11011110 1
08
#1310
b11000101 7
18
#1311
b11011001 1
08
#1312
b11010111 1
b11000110 7
18
