Elitestek_Oscilloscope-bram/Efinity/la1_waveform.vcd
#0 $dumpon
$date today $end
$timescale 1 ns $end
$scope module top $end
$var wire 5 0 ram_re $end
$var wire 5 1 ram_we $end
$var wire 14 2 ram_waddr $end
$var wire 16 3 ram_rdata_b $end
$var wire 14 4 ram_raddr $end
$var wire 10 5 u_VsyHsyGenerator/pCnt_value $end
$var wire 10 6 u_VsyHsyGenerator/hCnt_value $end
$var wire 14 7 u_VsyHsyGenerator/ram_addr $end
$var wire 16 8 u_VsyHsyGenerator/ram_color $end
$var wire 5 9 u_VsyHsyGenerator/ram_en $end
$var wire 16 a u_VsyHsyGenerator/io_color $end
$var wire 1 b clk_12M_i $end
$var wire 14 c u_VsyHsyGenerator/picture/ram_addr $end
$var wire 3 d u_VsyHsyGenerator/picture/rAddr/filmSel $end
$var wire 10 e u_VsyHsyGenerator/picture/rAddr/ram_x $end
$var wire 10 f u_VsyHsyGenerator/picture/rAddr/ram_y $end
$var wire 10 10 u_VsyHsyGenerator/picture/coordinate_x $end
$var wire 10 11 u_VsyHsyGenerator/picture/coordinate_y $end
$var wire 10 12 data_remain $end
$var wire 8 13 fifo_data_in $end
$var wire 8 14 fifo_data_out $end
$var wire 1 15 wr_en_i $end
$var wire 1 16 rd_en_i $end
$var wire 16 17 ram_wdata_a $end
$upscope $end
$enddefinitions $end
#0
$dumpvars
b00001 0
b00000 1
b00000000000000 2
b0000000000000000 3
b10001000111101 4
b0001111011 5
b0011101110 6
b10001000111101 7
b0000000000000000 8
b00001 9
b0000000000000000 a
1b
b10001000111101 c
b000 d
b0000111101 e
b0001110111 f
b0001111011 10
b0011101110 11
b0000000000 12
b10000110 13
b01111111 14
015
016
b0000000000000001 17
$end
#4
0b
#8
b10001000111110 4
b0001111100 5
b10001000111110 7
1b
b10001000111110 c
b0000111110 e
b0001111100 10
b10000111 13
#12
0b
#16
b0001111101 5
1b
b0001111101 10
#20
0b
#24
b10001000111111 4
b0001111110 5
b10001000111111 7
1b
b10001000111111 c
b0000111111 e
b0001111110 10
#28
0b
#32
b0001111111 5
1b
b0001111111 10
b10001000 13
#36
0b
#40
b00010 0
b10001000000000 4
b0010000000 5
b10001000000000 7
b00010 9
1b
b10001000000000 c
b001 d
b0001000000 e
b0010000000 10
#44
0b
#48
b0010000001 5
1b
b0010000001 10
#52
0b
#56
b10001000000001 4
b0010000010 5
b10001000000001 7
1b
b10001000000001 c
b0001000001 e
b0010000010 10
#60
0b
#64
b0010000011 5
1b
b0010000011 10
b10001001 13
#68
0b
#72
b10001000000010 4
b0010000100 5
b10001000000010 7
1b
b10001000000010 c
b0001000010 e
b0010000100 10
#76
0b
#80
b0010000101 5
1b
b0010000101 10
#84
0b
#88
b10001000000011 4
b0010000110 5
b10001000000011 7
1b
b10001000000011 c
b0001000011 e
b0010000110 10
#92
0b
#96
b0010000111 5
1b
b0010000111 10
#100
0b
#104
b10001000000100 4
b0010001000 5
b10001000000100 7
1b
b10001000000100 c
b0001000100 e
b0010001000 10
#108
0b
#112
b0010001001 5
1b
b0010001001 10
#116
0b
#120
b10001000000101 4
b0010001010 5
b10001000000101 7
1b
b10001000000101 c
b0001000101 e
b0010001010 10
#124
0b
#128
b0010001011 5
1b
b0010001011 10
#132
0b
#136
b10001000000110 4
b0010001100 5
b10001000000110 7
1b
b10001000000110 c
b0001000110 e
b0010001100 10
b10001010 13
#140
0b
#144
b0010001101 5
1b
b0010001101 10
b10001001 13
#148
0b
#152
b10001000000111 4
b0010001110 5
b10001000000111 7
1b
b10001000000111 c
b0001000111 e
b0010001110 10
#156
0b
#160
b0010001111 5
1b
b0010001111 10
#164
0b
#168
b10001000001000 4
b0010010000 5
b10001000001000 7
1b
b10001000001000 c
b0001001000 e
b0010010000 10
#172
0b
#176
b0010010001 5
1b
b0010010001 10
#180
0b
#184
b10001000001001 4
b0010010010 5
b10001000001001 7
1b
b10001000001001 c
b0001001001 e
b0010010010 10
#188
0b
#192
b0010010011 5
1b
b0010010011 10
#196
0b
#200
b10001000001010 4
b0010010100 5
b10001000001010 7
1b
b10001000001010 c
b0001001010 e
b0010010100 10
#204
0b
#208
b0010010101 5
1b
b0010010101 10
#212
0b
#216
b10001000001011 4
b0010010110 5
b10001000001011 7
1b
b10001000001011 c
b0001001011 e
b0010010110 10
b10001000 13
#220
0b
#224
b0010010111 5
1b
b0010010111 10
#228
0b
#232
b10001000001100 4
b0010011000 5
b10001000001100 7
1b
b10001000001100 c
b0001001100 e
b0010011000 10
#236
0b
#240
b0010011001 5
1b
b0010011001 10
#244
0b
#248
b10001000001101 4
b0010011010 5
b10001000001101 7
1b
b10001000001101 c
b0001001101 e
b0010011010 10
b10000111 13
#252
0b
#256
b0010011011 5
1b
b0010011011 10
#260
0b
#264
b10001000001110 4
b0010011100 5
b10001000001110 7
1b
b10001000001110 c
b0001001110 e
b0010011100 10
#268
0b
#272
b0010011101 5
1b
b0010011101 10
b10000110 13
#276
0b
#280
b10001000001111 4
b0010011110 5
b10001000001111 7
1b
b10001000001111 c
b0001001111 e
b0010011110 10
#284
0b
#288
b0010011111 5
1b
b0010011111 10
b10000101 13
#292
0b
#296
b10001000010000 4
b0010100000 5
b10001000010000 7
1b
b10001000010000 c
b0001010000 e
b0010100000 10
#300
0b
#304
b0010100001 5
1b
b0010100001 10
#308
0b
#312
b10001000010001 4
b0010100010 5
b10001000010001 7
1b
b10001000010001 c
b0001010001 e
b0010100010 10
b10000100 13
#316
0b
#320
b0010100011 5
1b
b0010100011 10
#324
0b
#328
b10001000010010 4
b0010100100 5
b10001000010010 7
1b
b10001000010010 c
b0001010010 e
b0010100100 10
b10000011 13
#332
0b
#336
b0010100101 5
1b
b0010100101 10
#340
0b
#344
b10001000010011 4
b0010100110 5
b10001000010011 7
1b
b10001000010011 c
b0001010011 e
b0010100110 10
b10000010 13
#348
0b
#352
b0010100111 5
1b
b0010100111 10
#356
0b
#360
b10001000010100 4
b0010101000 5
b10001000010100 7
1b
b10001000010100 c
b0001010100 e
b0010101000 10
b10000001 13
#364
0b
#368
b0010101001 5
1b
b0010101001 10
#372
0b
#376
b10001000010101 4
b0010101010 5
b10001000010101 7
1b
b10001000010101 c
b0001010101 e
b0010101010 10
b10000000 13
#380
0b
#384
b0010101011 5
1b
b0010101011 10
#388
0b
#392
b10001000010110 4
b0010101100 5
b10001000010110 7
1b
b10001000010110 c
b0001010110 e
b0010101100 10
#396
0b
#400
b0010101101 5
1b
b0010101101 10
b01111111 13
#404
0b
#408
b10001000010111 4
b0010101110 5
b10001000010111 7
1b
b10001000010111 c
b0001010111 e
b0010101110 10
#412
0b
#416
b0010101111 5
1b
b0010101111 10
b01111110 13
#420
0b
#424
b10001000011000 4
b0010110000 5
b10001000011000 7
1b
b10001000011000 c
b0001011000 e
b0010110000 10
#428
0b
#432
b0010110001 5
1b
b0010110001 10
b01111101 13
#436
0b
#440
b10001000011001 4
b0010110010 5
b10001000011001 7
1b
b10001000011001 c
b0001011001 e
b0010110010 10
#444
0b
#448
b0010110011 5
1b
b0010110011 10
b01111100 13
#452
0b
#456
b10001000011010 4
b0010110100 5
b10001000011010 7
1b
b10001000011010 c
b0001011010 e
b0010110100 10
#460
0b
#464
b0010110101 5
1b
b0010110101 10
b01111011 13
#468
0b
#472
b10001000011011 4
b0010110110 5
b10001000011011 7
1b
b10001000011011 c
b0001011011 e
b0010110110 10
#476
0b
#480
b0010110111 5
1b
b0010110111 10
b01111010 13
#484
0b
#488
b10001000011100 4
b0010111000 5
b10001000011100 7
1b
b10001000011100 c
b0001011100 e
b0010111000 10
#492
0b
#496
b0010111001 5
1b
b0010111001 10
#500
0b
#504
b10001000011101 4
b0010111010 5
b10001000011101 7
1b
b10001000011101 c
b0001011101 e
b0010111010 10
b01111001 13
#508
0b
#512
b0010111011 5
1b
b0010111011 10
#516
0b
#520
b10001000011110 4
b0010111100 5
b10001000011110 7
1b
b10001000011110 c
b0001011110 e
b0010111100 10
b01111000 13
#524
0b
#528
b0010111101 5
1b
b0010111101 10
#532
0b
#536
b10001000011111 4
b0010111110 5
b10001000011111 7
1b
b10001000011111 c
b0001011111 e
b0010111110 10
#540
0b
#544
b0010111111 5
1b
b0010111111 10
b01110111 13
#548
0b
#552
b10001000100000 4
b0011000000 5
b10001000100000 7
1b
b10001000100000 c
b0001100000 e
b0011000000 10
#556
0b
#560
b0011000001 5
1b
b0011000001 10
#564
0b
#568
b10001000100001 4
b0011000010 5
b10001000100001 7
1b
b10001000100001 c
b0001100001 e
b0011000010 10
#572
0b
#576
b0011000011 5
1b
b0011000011 10
b01110110 13
#580
0b
#584
b10001000100010 4
b0011000100 5
b10001000100010 7
1b
b10001000100010 c
b0001100010 e
b0011000100 10
#588
0b
#592
b0011000101 5
1b
b0011000101 10
#596
0b
#600
b10001000100011 4
b0011000110 5
b10001000100011 7
1b
b10001000100011 c
b0001100011 e
b0011000110 10
#604
0b
#608
b0011000111 5
1b
b0011000111 10
#612
0b
#616
b10001000100100 4
b0011001000 5
b10001000100100 7
1b
b10001000100100 c
b0001100100 e
b0011001000 10
#620
0b
#624
b0011001001 5
1b
b0011001001 10
#628
0b
#632
b10001000100101 4
b0011001010 5
b10001000100101 7
1b
b10001000100101 c
b0001100101 e
b0011001010 10
#636
0b
#640
b0011001011 5
1b
b0011001011 10
#644
0b
#648
b10001000100110 4
b0011001100 5
b10001000100110 7
1b
b10001000100110 c
b0001100110 e
b0011001100 10
#652
0b
#656
b0011001101 5
1b
b0011001101 10
#660
0b
#664
b10001000100111 4
b0011001110 5
b10001000100111 7
1b
b10001000100111 c
b0001100111 e
b0011001110 10
#668
0b
#672
b0011001111 5
1b
b0011001111 10
#676
0b
#680
b10001000101000 4
b0011010000 5
b10001000101000 7
1b
b10001000101000 c
b0001101000 e
b0011010000 10
#684
0b
#688
b0011010001 5
1b
b0011010001 10
#692
0b
#696
b10001000101001 4
b0011010010 5
b10001000101001 7
1b
b10001000101001 c
b0001101001 e
b0011010010 10
#700
0b
#704
b0011010011 5
1b
b0011010011 10
#708
0b
#712
b10001000101010 4
b0011010100 5
b10001000101010 7
1b
b10001000101010 c
b0001101010 e
b0011010100 10
#716
0b
#720
b0011010101 5
1b
b0011010101 10
#724
0b
#728
b10001000101011 4
b0011010110 5
b10001000101011 7
1b
b10001000101011 c
b0001101011 e
b0011010110 10
b01110111 13
#732
0b
#736
b0011010111 5
1b
b0011010111 10
#740
0b
#744
b10001000101100 4
b0011011000 5
b10001000101100 7
1b
b10001000101100 c
b0001101100 e
b0011011000 10
#748
0b
#752
b0011011001 5
1b
b0011011001 10
#756
0b
#760
b10001000101101 4
b0011011010 5
b10001000101101 7
1b
b10001000101101 c
b0001101101 e
b0011011010 10
b01111000 13
#764
0b
#768
b0011011011 5
1b
b0011011011 10
#772
0b
#776
b10001000101110 4
b0011011100 5
b10001000101110 7
1b
b10001000101110 c
b0001101110 e
b0011011100 10
#780
0b
#784
b0011011101 5
1b
b0011011101 10
b01111001 13
#788
0b
#792
b10001000101111 4
b0011011110 5
b10001000101111 7
1b
b10001000101111 c
b0001101111 e
b0011011110 10
#796
0b
#800
b0011011111 5
1b
b0011011111 10
b01111010 13
#804
0b
#808
b10001000110000 4
b0011100000 5
b10001000110000 7
1b
b10001000110000 c
b0001110000 e
b0011100000 10
#812
0b
#816
b0011100001 5
1b
b0011100001 10
#820
0b
#824
b10001000110001 4
b0011100010 5
b10001000110001 7
1b
b10001000110001 c
b0001110001 e
b0011100010 10
b01111011 13
#828
0b
#832
b0011100011 5
1b
b0011100011 10
#836
0b
#840
b10001000110010 4
b0011100100 5
b10001000110010 7
1b
b10001000110010 c
b0001110010 e
b0011100100 10
b01111100 13
#844
0b
#848
b0011100101 5
1b
b0011100101 10
#852
0b
#856
b10001000110011 4
b0011100110 5
b10001000110011 7
1b
b10001000110011 c
b0001110011 e
b0011100110 10
b01111101 13
#860
0b
#864
b0011100111 5
1b
b0011100111 10
#868
0b
#872
b10001000110100 4
b0011101000 5
b10001000110100 7
1b
b10001000110100 c
b0001110100 e
b0011101000 10
b01111110 13
#876
0b
#880
b0011101001 5
1b
b0011101001 10
#884
0b
#888
b10001000110101 4
b0011101010 5
b10001000110101 7
1b
b10001000110101 c
b0001110101 e
b0011101010 10
b01111111 13
#892
0b
#896
b0011101011 5
1b
b0011101011 10
#900
0b
#904
b10001000110110 4
b0011101100 5
b10001000110110 7
1b
b10001000110110 c
b0001110110 e
b0011101100 10
b10000000 13
#908
0b
#912
b0011101101 5
1b
b0011101101 10
#916
0b
#920
b10001000110111 4
b0011101110 5
b10001000110111 7
1b
b10001000110111 c
b0001110111 e
b0011101110 10
#924
0b
#928
b0011101111 5
1b
b0011101111 10
b10000001 13
#932
0b
#936
b10001000111000 4
b0011110000 5
b10001000111000 7
1b
b10001000111000 c
b0001111000 e
b0011110000 10
#940
0b
#944
b0011110001 5
1b
b0011110001 10
b10000010 13
#948
0b
#952
b10001000111001 4
b0011110010 5
b10001000111001 7
1b
b10001000111001 c
b0001111001 e
b0011110010 10
#956
0b
#960
b0011110011 5
1b
b0011110011 10
b10000011 13
#964
0b
#968
b10001000111010 4
b0011110100 5
b10001000111010 7
1b
b10001000111010 c
b0001111010 e
b0011110100 10
#972
0b
#976
b0011110101 5
1b
b0011110101 10
b10000100 13
#980
0b
#984
b10001000111011 4
b0011110110 5
b10001000111011 7
1b
b10001000111011 c
b0001111011 e
b0011110110 10
#988
0b
#992
b0011110111 5
1b
b0011110111 10
b10000101 13
#996
0b
#1000
b10001000111100 4
b0011111000 5
b10001000111100 7
1b
b10001000111100 c
b0001111100 e
b0011111000 10
#1004
0b
#1008
b0011111001 5
1b
b0011111001 10
#1012
0b
#1016
b10001000111101 4
b0011111010 5
b10001000111101 7
1b
b10001000111101 c
b0001111101 e
b0011111010 10
b10000110 13
#1020
0b
#1024
b0000000000000001 3
b0011111011 5
b0000000000000001 8
1b
b0011111011 10
#1028
0b
#1032
b10001000111110 4
b0011111100 5
b10001000111110 7
b1111000100000000 a
1b
b10001000111110 c
b0001111110 e
b0011111100 10
b10000111 13
#1036
0b
#1040
b0011111101 5
1b
b0011111101 10
#1044
0b
#1048
b10001000111111 4
b0011111110 5
b10001000111111 7
1b
b10001000111111 c
b0001111111 e
b0011111110 10
#1052
0b
#1056
b0011111111 5
1b
b0011111111 10
b10001000 13
#1060
0b
#1064
b00100 0
b0000000000000000 3
b10001000000000 4
b0100000000 5
b10001000000000 7
b0000000000000000 8
b00100 9
1b
b10001000000000 c
b010 d
b0010000000 e
b0100000000 10
#1068
0b
#1072
b0000000000000001 3
b0100000001 5
b0000000000000001 8
b0000000000000000 a
1b
b0100000001 10
#1076
0b
#1080
b10001000000001 4
b0100000010 5
b10001000000001 7
b1111000100000000 a
1b
b10001000000001 c
b0010000001 e
b0100000010 10
#1084
0b
#1088
b0000000000000000 3
b0100000011 5
b0000000000000000 8
1b
b0100000011 10
b10001001 13
#1092
0b
#1096
b10001000000010 4
b0100000100 5
b10001000000010 7
b0000000000000000 a
1b
b10001000000010 c
b0010000010 e
b0100000100 10
#1100
0b
#1104
b0100000101 5
1b
b0100000101 10
#1108
0b
#1112
b10001000000011 4
b0100000110 5
b10001000000011 7
1b
b10001000000011 c
b0010000011 e
b0100000110 10
#1116
0b
#1120
b0100000111 5
1b
b0100000111 10
#1124
0b
#1128
b10001000000100 4
b0100001000 5
b10001000000100 7
1b
b10001000000100 c
b0010000100 e
b0100001000 10
#1132
0b
#1136
b0100001001 5
1b
b0100001001 10
#1140
0b
#1144
b10001000000101 4
b0100001010 5
b10001000000101 7
1b
b10001000000101 c
b0010000101 e
b0100001010 10
#1148
0b
#1152
b0100001011 5
1b
b0100001011 10
#1156
0b
#1160
b10001000000110 4
b0100001100 5
b10001000000110 7
1b
b10001000000110 c
b0010000110 e
b0100001100 10
b10001010 13
#1164
0b
#1168
b0100001101 5
1b
b0100001101 10
b10001001 13
#1172
0b
#1176
b10001000000111 4
b0100001110 5
b10001000000111 7
1b
b10001000000111 c
b0010000111 e
b0100001110 10
#1180
0b
#1184
b0100001111 5
1b
b0100001111 10
#1188
0b
#1192
b10001000001000 4
b0100010000 5
b10001000001000 7
1b
b10001000001000 c
b0010001000 e
b0100010000 10
#1196
0b
#1200
b0100010001 5
1b
b0100010001 10
#1204
0b
#1208
b10001000001001 4
b0100010010 5
b10001000001001 7
1b
b10001000001001 c
b0010001001 e
b0100010010 10
#1212
0b
#1216
b0100010011 5
1b
b0100010011 10
#1220
0b
#1224
b10001000001010 4
b0100010100 5
b10001000001010 7
1b
b10001000001010 c
b0010001010 e
b0100010100 10
#1228
0b
#1232
b0100010101 5
1b
b0100010101 10
#1236
0b
#1240
b10001000001011 4
b0100010110 5
b10001000001011 7
1b
b10001000001011 c
b0010001011 e
b0100010110 10
b10001000 13
#1244
0b
#1248
b0100010111 5
1b
b0100010111 10
#1252
0b
#1256
b10001000001100 4
b0100011000 5
b10001000001100 7
1b
b10001000001100 c
b0010001100 e
b0100011000 10
#1260
0b
#1264
b0100011001 5
1b
b0100011001 10
#1268
0b
#1272
b10001000001101 4
b0100011010 5
b10001000001101 7
1b
b10001000001101 c
b0010001101 e
b0100011010 10
b10000111 13
#1276
0b
#1280
b0100011011 5
1b
b0100011011 10
#1284
0b
#1288
b10001000001110 4
b0100011100 5
b10001000001110 7
1b
b10001000001110 c
b0010001110 e
b0100011100 10
#1292
0b
#1296
b0100011101 5
1b
b0100011101 10
b10000110 13
#1300
0b
#1304
b10001000001111 4
b0100011110 5
b10001000001111 7
1b
b10001000001111 c
b0010001111 e
b0100011110 10
#1308
0b
#1312
b0100011111 5
1b
b0100011111 10
b10000101 13
#1316
0b
#1320
b10001000010000 4
b0100100000 5
b10001000010000 7
1b
b10001000010000 c
b0010010000 e
b0100100000 10
#1324
0b
#1328
b0100100001 5
1b
b0100100001 10
#1332
0b
#1336
b10001000010001 4
b0100100010 5
b10001000010001 7
1b
b10001000010001 c
b0010010001 e
b0100100010 10
b10000100 13
#1340
0b
#1344
b0100100011 5
1b
b0100100011 10
#1348
0b
#1352
b10001000010010 4
b0100100100 5
b10001000010010 7
1b
b10001000010010 c
b0010010010 e
b0100100100 10
b10000011 13
#1356
0b
#1360
b0100100101 5
1b
b0100100101 10
#1364
0b
#1368
b10001000010011 4
b0100100110 5
b10001000010011 7
1b
b10001000010011 c
b0010010011 e
b0100100110 10
b10000010 13
#1372
0b
#1376
b0100100111 5
1b
b0100100111 10
#1380
0b
#1384
b10001000010100 4
b0100101000 5
b10001000010100 7
1b
b10001000010100 c
b0010010100 e
b0100101000 10
b10000001 13
#1388
0b
#1392
b0000000000000001 3
b0100101001 5
b0000000000000001 8
1b
b0100101001 10
#1396
0b
#1400
b10001000010101 4
b0100101010 5
b10001000010101 7
b1111000100000000 a
1b
b10001000010101 c
b0010010101 e
b0100101010 10
b10000000 13
#1404
0b
#1408
b0100101011 5
1b
b0100101011 10
#1412
0b
#1416
b10001000010110 4
b0100101100 5
b10001000010110 7
1b
b10001000010110 c
b0010010110 e
b0100101100 10
#1420
0b
#1424
b0100101101 5
1b
b0100101101 10
b01111111 13
#1428
0b
#1432
b10001000010111 4
b0100101110 5
b10001000010111 7
1b
b10001000010111 c
b0010010111 e
b0100101110 10
#1436
0b
#1440
b0100101111 5
1b
b0100101111 10
b01111110 13
#1444
0b
#1448
b10001000011000 4
b0100110000 5
b10001000011000 7
1b
b10001000011000 c
b0010011000 e
b0100110000 10
#1452
0b
#1456
b0000000000000000 3
b0100110001 5
b0000000000000000 8
1b
b0100110001 10
b01111101 13
#1460
0b
#1464
b10001000011001 4
b0100110010 5
b10001000011001 7
b0000000000000000 a
1b
b10001000011001 c
b0010011001 e
b0100110010 10
#1468
0b
#1472
b0100110011 5
1b
b0100110011 10
b01111100 13
#1476
0b
#1480
b10001000011010 4
b0100110100 5
b10001000011010 7
1b
b10001000011010 c
b0010011010 e
b0100110100 10
#1484
0b
#1488
b0100110101 5
1b
b0100110101 10
b01111011 13
#1492
0b
#1496
b10001000011011 4
b0100110110 5
b10001000011011 7
1b
b10001000011011 c
b0010011011 e
b0100110110 10
#1500
0b
#1504
b0100110111 5
1b
b0100110111 10
b01111010 13
#1508
0b
#1512
b10001000011100 4
b0100111000 5
b10001000011100 7
1b
b10001000011100 c
b0010011100 e
b0100111000 10
#1516
0b
#1520
b0100111001 5
1b
b0100111001 10
#1524
0b
#1528
b10001000011101 4
b0100111010 5
b10001000011101 7
1b
b10001000011101 c
b0010011101 e
b0100111010 10
b01111001 13
#1532
0b
#1536
b0100111011 5
1b
b0100111011 10
#1540
0b
#1544
b10001000011110 4
b0100111100 5
b10001000011110 7
1b
b10001000011110 c
b0010011110 e
b0100111100 10
b01111000 13
#1548
0b
#1552
b0100111101 5
1b
b0100111101 10
#1556
0b
#1560
b10001000011111 4
b0100111110 5
b10001000011111 7
1b
b10001000011111 c
b0010011111 e
b0100111110 10
#1564
0b
#1568
b0100111111 5
1b
b0100111111 10
b01110111 13
#1572
0b
#1576
b10001000100000 4
b0101000000 5
b10001000100000 7
1b
b10001000100000 c
b0010100000 e
b0101000000 10
#1580
0b
#1584
b0101000001 5
1b
b0101000001 10
#1588
0b
#1592
b10001000100001 4
b0101000010 5
b10001000100001 7
1b
b10001000100001 c
b0010100001 e
b0101000010 10
#1596
0b
#1600
b0101000011 5
1b
b0101000011 10
b01110110 13
#1604
0b
#1608
b10001000100010 4
b0101000100 5
b10001000100010 7
1b
b10001000100010 c
b0010100010 e
b0101000100 10
#1612
0b
#1616
b0101000101 5
1b
b0101000101 10
#1620
0b
#1624
b10001000100011 4
b0101000110 5
b10001000100011 7
1b
b10001000100011 c
b0010100011 e
b0101000110 10
#1628
0b
#1632
b0101000111 5
1b
b0101000111 10
#1636
0b
#1640
b10001000100100 4
b0101001000 5
b10001000100100 7
1b
b10001000100100 c
b0010100100 e
b0101001000 10
#1644
0b
#1648
b0101001001 5
1b
b0101001001 10
#1652
0b
#1656
b10001000100101 4
b0101001010 5
b10001000100101 7
1b
b10001000100101 c
b0010100101 e
b0101001010 10
#1660
0b
#1664
b0101001011 5
1b
b0101001011 10
#1668
0b
#1672
b10001000100110 4
b0101001100 5
b10001000100110 7
1b
b10001000100110 c
b0010100110 e
b0101001100 10
#1676
0b
#1680
b0101001101 5
1b
b0101001101 10
#1684
0b
#1688
b10001000100111 4
b0101001110 5
b10001000100111 7
1b
b10001000100111 c
b0010100111 e
b0101001110 10
#1692
0b
#1696
b0101001111 5
1b
b0101001111 10
#1700
0b
#1704
b10001000101000 4
b0101010000 5
b10001000101000 7
1b
b10001000101000 c
b0010101000 e
b0101010000 10
#1708
0b
#1712
b0101010001 5
1b
b0101010001 10
#1716
0b
#1720
b10001000101001 4
b0101010010 5
b10001000101001 7
1b
b10001000101001 c
b0010101001 e
b0101010010 10
#1724
0b
#1728
b0101010011 5
1b
b0101010011 10
#1732
0b
#1736
b10001000101010 4
b0101010100 5
b10001000101010 7
1b
b10001000101010 c
b0010101010 e
b0101010100 10
#1740
0b
#1744
b0101010101 5
1b
b0101010101 10
#1748
0b
#1752
b10001000101011 4
b0101010110 5
b10001000101011 7
1b
b10001000101011 c
b0010101011 e
b0101010110 10
b01110111 13
#1756
0b
#1760
b0101010111 5
1b
b0101010111 10
#1764
0b
#1768
b10001000101100 4
b0101011000 5
b10001000101100 7
1b
b10001000101100 c
b0010101100 e
b0101011000 10
#1772
0b
#1776
b0101011001 5
1b
b0101011001 10
#1780
0b
#1784
b10001000101101 4
b0101011010 5
b10001000101101 7
1b
b10001000101101 c
b0010101101 e
b0101011010 10
b01111000 13
#1788
0b
#1792
b0101011011 5
1b
b0101011011 10
#1796
0b
#1800
b10001000101110 4
b0101011100 5
b10001000101110 7
1b
b10001000101110 c
b0010101110 e
b0101011100 10
#1804
0b
#1808
b0101011101 5
1b
b0101011101 10
b01111001 13
#1812
0b
#1816
b10001000101111 4
b0101011110 5
b10001000101111 7
1b
b10001000101111 c
b0010101111 e
b0101011110 10
#1820
0b
#1824
b0101011111 5
1b
b0101011111 10
b01111010 13
#1828
0b
#1832
b10001000110000 4
b0101100000 5
b10001000110000 7
1b
b10001000110000 c
b0010110000 e
b0101100000 10
#1836
0b
#1840
b0101100001 5
1b
b0101100001 10
#1844
0b
#1848
b10001000110001 4
b0101100010 5
b10001000110001 7
1b
b10001000110001 c
b0010110001 e
b0101100010 10
b01111011 13
#1852
0b
#1856
b0101100011 5
1b
b0101100011 10
#1860
0b
#1864
b10001000110010 4
b0101100100 5
b10001000110010 7
1b
b10001000110010 c
b0010110010 e
b0101100100 10
b01111100 13
#1868
0b
#1872
b0101100101 5
1b
b0101100101 10
#1876
0b
#1880
b10001000110011 4
b0101100110 5
b10001000110011 7
1b
b10001000110011 c
b0010110011 e
b0101100110 10
b01111101 13
#1884
0b
#1888
b0101100111 5
1b
b0101100111 10
#1892
0b
#1896
b10001000110100 4
b0101101000 5
b10001000110100 7
1b
b10001000110100 c
b0010110100 e
b0101101000 10
b01111110 13
#1900
0b
#1904
b0101101001 5
1b
b0101101001 10
#1908
0b
#1912
b10001000110101 4
b0101101010 5
b10001000110101 7
1b
b10001000110101 c
b0010110101 e
b0101101010 10
b01111111 13
#1916
0b
#1920
b0101101011 5
1b
b0101101011 10
#1924
0b
#1928
b10001000110110 4
b0101101100 5
b10001000110110 7
1b
b10001000110110 c
b0010110110 e
b0101101100 10
b10000000 13
#1932
0b
#1936
b0101101101 5
1b
b0101101101 10
#1940
0b
#1944
b10001000110111 4
b0101101110 5
b10001000110111 7
1b
b10001000110111 c
b0010110111 e
b0101101110 10
#1948
0b
#1952
b0101101111 5
1b
b0101101111 10
b10000001 13
#1956
0b
#1960
b10001000111000 4
b0101110000 5
b10001000111000 7
1b
b10001000111000 c
b0010111000 e
b0101110000 10
#1964
0b
#1968
b0101110001 5
1b
b0101110001 10
b10000010 13
#1972
0b
#1976
b10001000111001 4
b0101110010 5
b10001000111001 7
1b
b10001000111001 c
b0010111001 e
b0101110010 10
#1980
0b
#1984
b0101110011 5
1b
b0101110011 10
b10000011 13
#1988
0b
#1992
b10001000111010 4
b0101110100 5
b10001000111010 7
1b
b10001000111010 c
b0010111010 e
b0101110100 10
#1996
0b
#2000
b0101110101 5
1b
b0101110101 10
b10000100 13
#2004
0b
#2008
b10001000111011 4
b0101110110 5
b10001000111011 7
1b
b10001000111011 c
b0010111011 e
b0101110110 10
#2012
0b
#2016
b0101110111 5
1b
b0101110111 10
b10000101 13
#2020
0b
#2024
b10001000111100 4
b0101111000 5
b10001000111100 7
1b
b10001000111100 c
b0010111100 e
b0101111000 10
#2028
0b
#2032
b0101111001 5
1b
b0101111001 10
#2036
0b
#2040
b10001000111101 4
b0101111010 5
b10001000111101 7
1b
b10001000111101 c
b0010111101 e
b0101111010 10
b10000110 13
#2044
0b
#2047
b00100 0
b00000 1
b00000000000000 2
b0000000000000000 3
b10001000111101 4
b0101111010 5
b0011101110 6
b10001000111101 7
b0000000000000000 8
b00100 9
b0000000000000000 a
0b
b10001000111101 c
b010 d
b0010111101 e
b0001110111 f
b0101111010 10
b0011101110 11
b0000000000 12
b10000110 13
b01111111 14
015
016
b0000000000000001 17
