Elitestek_Oscilloscope-bram/Efinity/la2_waveform.vcd
#0 $dumpon
$date today $end
$timescale 1 ns $end
$scope module top $end
$var wire 16 0 u_WAVE_MAPPING_RAM0/wdata_a $end
$upscope $end
$enddefinitions $end
#0
$dumpvars
b0000000000001000 0
$end
#936
b0000000000000111 0
#948
b0000000000000110 0
#961
b0000000000000101 0
#974
b0000000000000100 0
#989
b0000000000000011 0
#1005
b0000000000000010 0
#1024
b0000000000000001 0
#1049
b0000000000000000 0
#1164
b0000000000000001 0
#1189
b0000000000000010 0
#1208
b0000000000000011 0
#1224
b0000000000000100 0
#1239
b0000000000000101 0
#1252
b0000000000000110 0
#1265
b0000000000000111 0
#1277
b0000000000001000 0
#1289
b0000000000001001 0
#1300
b0000000000001010 0
#1311
b0000000000001011 0
#1321
b0000000000001100 0
#1332
b0000000000001101 0
#1342
b0000000000001110 0
#1352
b0000000000001111 0
#1361
b0000000000010000 0
#1372
b0000000000010001 0
#1382
b0000000000010010 0
#1392
b0000000000010011 0
#1403
b0000000000010100 0
#1413
b0000000000010101 0
#1424
b0000000000010110 0
#1435
b0000000000010111 0
#1447
b0000000000011000 0
#1459
b0000000000011001 0
#1472
b0000000000011010 0
#1485
b0000000000011011 0
#1500
b0000000000011100 0
#1516
b0000000000011101 0
#1535
b0000000000011110 0
#1560
b0000000000011111 0
#1617
b0000000000100000 0
#1618
b0000000000011111 0
#1675
b0000000000011110 0
#1700
b0000000000011101 0
#1719
b0000000000011100 0
#1735
b0000000000011011 0
#1750
b0000000000011010 0
#1763
b0000000000011001 0
#1776
b0000000000011000 0
#1788
b0000000000010111 0
#1800
b0000000000010110 0
#1811
b0000000000010101 0
#1822
b0000000000010100 0
#1832
b0000000000010011 0
#1843
b0000000000010010 0
#1853
b0000000000010001 0
#1863
b0000000000010000 0
#1874
b0000000000001111 0
#1884
b0000000000001110 0
#1894
b0000000000001101 0
#1904
b0000000000001100 0
#1915
b0000000000001011 0
#1925
b0000000000001010 0
#1936
b0000000000001001 0
#1947
b0000000000001000 0
#2047
b0000000000001000 0
