Elitestek_Oscilloscope-bram/Efinity/lab1_waveform.vcd
#0 $dumpon
$date today $end
$timescale 1 ns $end
$scope module top $end
$var wire 5 0 ram_re $end
$var wire 5 1 ram_we $end
$var wire 14 2 ram_waddr $end
$var wire 16 3 ram_rdata_b $end
$var wire 14 4 ram_raddr $end
$var wire 10 5 u_VsyHsyGenerator/pCnt_value $end
$var wire 10 6 u_VsyHsyGenerator/hCnt_value $end
$var wire 14 7 u_VsyHsyGenerator/ram_addr $end
$var wire 16 8 u_VsyHsyGenerator/ram_color $end
$var wire 5 9 u_VsyHsyGenerator/ram_en $end
$var wire 16 a u_VsyHsyGenerator/io_color $end
$var wire 1 b clk_12M_i $end
$var wire 14 c u_VsyHsyGenerator/picture/ram_addr $end
$var wire 3 d u_VsyHsyGenerator/picture/rAddr/filmSel $end
$var wire 10 e u_VsyHsyGenerator/picture/rAddr/ram_x $end
$var wire 10 f u_VsyHsyGenerator/picture/rAddr/ram_y $end
$var wire 10 10 u_VsyHsyGenerator/picture/coordinate_x $end
$var wire 10 11 u_VsyHsyGenerator/picture/coordinate_y $end
$var wire 10 12 data_remain $end
$var wire 8 13 fifo_data_in $end
$var wire 8 14 fifo_data_out $end
$var wire 1 15 wr_en_i $end
$var wire 1 16 rd_en_i $end
$var wire 16 17 ram_wdata_a $end
$upscope $end
$enddefinitions $end
#0
$dumpvars
b00100 0
b00001 1
b10111000111111 2
b0000000000000000 3
b11010111011000 4
b0100101111 5
b0001010000 6
b11010111011000 7
b0000000000000000 8
b00100 9
b0000000000000000 a
1b
b11010111011000 c
b010 d
b0010011000 e
b0000101000 f
b0100101111 10
b0001010000 11
b0100101101 12
b10110000 13
b10111000 14
015
116
b0000000000000001 17
$end
#3
0b
#7
1b
#8
b10000001000000 2
b0100110000 5
b0100110000 10
b0100101100 12
b10101111 13
b10000001 14
#11
0b
#15
1b
#16
b00000101000001 2
b11010111011001 4
b0100110001 5
b11010111011001 7
b11010111011001 c
b0010011001 e
b0100110001 10
b0100101011 12
b10101110 13
b10000101 14
#17
b10000101000001 2
#19
0b
#23
1b
#24
b10001001000010 2
b0100110010 5
b0100110010 10
b0100101010 12
b10101100 13
b10001001 14
#27
0b
#31
1b
#32
b10001101000011 2
b11010111011010 4
b0100110011 5
b11010111011010 7
b11010111011010 c
b0010011010 e
b0100110011 10
b0100101001 12
b10101011 13
b10001101 14
#35
0b
#39
1b
#40
b10010001000100 2
b0100110100 5
b0100110100 10
b0100101000 12
b10101010 13
b10010001 14
#43
0b
#47
1b
#48
b10010101000101 2
b11010111011011 4
b0100110101 5
b11010111011011 7
b11010111011011 c
b0010011011 e
b0100110101 10
b0100100111 12
b10101000 13
b10010101 14
#51
0b
#55
1b
#56
b10011001000110 2
b0100110110 5
b0100110110 10
b0100100110 12
b10100110 13
b10011001 14
#59
0b
#63
1b
#64
b10011101000111 2
b11010111011100 4
b0100110111 5
b11010111011100 7
b11010111011100 c
b0010011100 e
b0100110111 10
b0100100101 12
b10100101 13
b10011101 14
#67
0b
#71
1b
#72
b10100001001000 2
b0100111000 5
b0100111000 10
b0100100100 12
b10011001 13
b10100001 14
#75
0b
#79
1b
#80
b10100101001001 2
b11010111011101 4
b0100111001 5
b11010111011101 7
b11010111011101 c
b0010011101 e
b0100111001 10
b0100100011 12
b10010111 13
b10100101 14
#83
0b
#87
1b
#88
b10011110001010 2
b0100111010 5
b0100111010 10
b0100100010 12
b10010101 13
b10011110 14
#91
0b
#95
1b
#96
b10100010001011 2
b11010111011110 4
b0100111011 5
b11010111011110 7
b11010111011110 c
b0010011110 e
b0100111011 10
b0100100001 12
b10010011 13
b10100010 14
#99
0b
#103
1b
#104
b10100110001100 2
b0100111100 5
b0100111100 10
b0100100000 12
b10010001 13
b10100110 14
#107
0b
#111
1b
#112
b10101001001101 2
b11010111011111 4
b0100111101 5
b11010111011111 7
b11010111011111 c
b0010011111 e
b0100111101 10
b0100011111 12
b10001111 13
b10101001 14
#115
0b
#119
1b
#120
b10101100001110 2
b0100111110 5
b0100111110 10
b0100011110 12
b10001101 13
b10101100 14
#123
0b
#127
1b
#128
b10110000001111 2
b11010111100000 4
b0100111111 5
b11010111100000 7
b11010111100000 c
b0010100000 e
b0100111111 10
b0100011101 12
b10001011 13
b10110000 14
#131
0b
#135
1b
#136
b10110011010000 2
b0101000000 5
b0101000000 10
b0100011100 12
b10001001 13
b10110011 14
#139
0b
#143
1b
#144
b10110110010001 2
b11010111100001 4
b0101000001 5
b11010111100001 7
b11010111100001 c
b0010100001 e
b0101000001 10
b0100011011 12
b10000111 13
b10110110 14
#147
0b
#151
1b
#152
b10111001010010 2
b0101000010 5
b0101000010 10
b0100011010 12
b01111010 13
b10111001 14
#155
0b
#159
1b
#160
b10111100010011 2
b11010111100010 4
b0101000011 5
b11010111100010 7
b11010111100010 c
b0010100010 e
b0101000011 10
b0100011001 12
b01111000 13
b10111100 14
#163
0b
#167
1b
#168
b10110100010100 2
b0101000100 5
b0101000100 10
b0100011000 12
b01110110 13
b10110100 14
#171
0b
#175
1b
#176
b10110111010101 2
b11010111100011 4
b0101000101 5
b11010111100011 7
b11010111100011 c
b0010100011 e
b0101000101 10
b0100010111 12
b01110100 13
b10110111 14
#179
0b
#183
1b
#184
b10111001010110 2
b0101000110 5
b0101000110 10
b0100010110 12
b01110010 13
b10111001 14
#187
0b
#191
1b
#192
b10111100010111 2
b11010111100100 4
b0101000111 5
b11010111100100 7
b11010111100100 c
b0010100100 e
b0101000111 10
b0100010101 12
b01110000 13
b10111100 14
#195
0b
#199
1b
#200
b10111110011000 2
b0101001000 5
b0101001000 10
b0100010100 12
b01101110 13
b10111110 14
#203
0b
#207
1b
#208
b11000000011001 2
b11010111100101 4
b0101001001 5
b11010111100101 7
b11010111100101 c
b0010100101 e
b0101001001 10
b0100010011 12
b01101100 13
b11000000 14
#211
0b
#215
1b
#216
b11000010011010 2
b0101001010 5
b0101001010 10
b0100010010 12
b01101010 13
b11000010 14
#219
0b
#223
1b
#224
b11000011011011 2
b11010111100110 4
b0101001011 5
b11010111100110 7
b11010111100110 c
b0010100110 e
b0101001011 10
b0100010001 12
b01101000 13
b11000011 14
#227
0b
#231
1b
#232
b11000101011100 2
b0101001100 5
b0101001100 10
b0100010000 12
b01011101 13
b11000101 14
#235
0b
#239
1b
#240
b11000110011101 2
b11010111100111 4
b0101001101 5
b11010111100111 7
b11010111100111 c
b0010100111 e
b0101001101 10
b0100001111 12
b01011011 13
b11000110 14
#243
0b
#247
1b
#248
b10111101011110 2
b0101001110 5
b0101001110 10
b0100001110 12
b01011001 13
b10111101 14
#251
0b
#255
1b
#256
b00111100001101 2
b11010111101000 4
b0101001111 5
b11010111101000 7
b11010111101000 c
b0010101000 e
b0101001111 10
b0100001101 12
b01011000 13
b10111111 14
#257
b10111111011111 2
#259
0b
#263
1b
#264
b10111111100000 2
b0101010000 5
b0101010000 10
b0100001100 12
b01010111 13
#267
0b
#271
1b
#272
b11000000100001 2
b11010111101001 4
b0101010001 5
b11010111101001 7
b11010111101001 c
b0010101001 e
b0101010001 10
b0100001011 12
b01010101 13
b11000000 14
#275
0b
#279
1b
#280
b11000001100010 2
b0101010010 5
b0101010010 10
b0100001010 12
b01010100 13
b11000001 14
#283
0b
#287
1b
#288
b11000001100011 2
b11010111101010 4
b0101010011 5
b11010111101010 7
b11010111101010 c
b0010101010 e
b0101010011 10
b0100001001 12
b01010011 13
#291
0b
#295
1b
#296
b11000010100100 2
b0101010100 5
b0101010100 10
b0100001000 12
b01010010 13
b11000010 14
#299
0b
#303
1b
#304
b11000010100101 2
b11010111101011 4
b0101010101 5
b11010111101011 7
b11010111101011 c
b0010101011 e
b0101010101 10
b0100000111 12
b01010001 13
#307
0b
#311
1b
#312
b11000010100110 2
b0101010110 5
b0101010110 10
b0100000110 12
b01000111 13
#315
0b
#319
1b
#320
b11000010100111 2
b11010111101100 4
b0101010111 5
b11010111101100 7
b11010111101100 c
b0010101100 e
b0101010111 10
b0100000101 12
b01000110 13
#323
0b
#327
1b
#328
b10110111101000 2
b0101011000 5
b0101011000 10
b0100000100 12
b10110111 14
#331
0b
#335
1b
#336
b10110111101001 2
b11010111101101 4
b0101011001 5
b11010111101101 7
b11010111101101 c
b0010101101 e
b0101011001 10
b0100000011 12
b01000101 13
#339
0b
#343
1b
#344
b10110110101010 2
b0101011010 5
b0101011010 10
b0100000010 12
b10110110 14
#347
0b
#351
1b
#352
b10110110101011 2
b11010111101110 4
b0101011011 5
b11010111101110 7
b11010111101110 c
b0010101110 e
b0101011011 10
b0100000001 12
#355
0b
#359
1b
#360
b10110101101100 2
b0101011100 5
b0101011100 10
b0100000000 12
b10110101 14
#363
0b
#367
1b
#368
b10110100101101 2
b11010111101111 4
b0101011101 5
b11010111101111 7
b11010111101111 c
b0010101111 e
b0101011101 10
b0011111111 12
b01000110 13
b10110100 14
#371
0b
#375
1b
#376
b10110011101110 2
b0101011110 5
b0101011110 10
b0011111110 12
b10110011 14
#379
0b
#383
1b
#384
b10110010101111 2
b11010111110000 4
b0101011111 5
b11010111110000 7
b11010111110000 c
b0010110000 e
b0101011111 10
b0011111101 12
b01000111 13
b10110010 14
#387
0b
#391
1b
#392
b10110000110000 2
b0101100000 5
b0101100000 10
b0011111100 12
b00111110 13
b10110000 14
#395
0b
#399
1b
#400
b10101111110001 2
b11010111110001 4
b0101100001 5
b11010111110001 7
b11010111110001 c
b0010110001 e
b0101100001 10
b0011111011 12
b00111111 13
b10101111 14
#403
0b
#407
1b
#408
b10100100110010 2
b0101100010 5
b0101100010 10
b0011111010 12
b01000000 13
b10100100 14
#411
0b
#415
1b
#416
b10100010110011 2
b11010111110010 4
b0101100011 5
b11010111110010 7
b11010111110010 c
b0010110010 e
b0101100011 10
b0011111001 12
b01000001 13
b10100010 14
#419
0b
#423
1b
#424
b10100000110100 2
b0101100100 5
b0101100100 10
b0011111000 12
b01000010 13
b10100000 14
#427
0b
#431
1b
#432
b10011111110101 2
b11010111110011 4
b0101100101 5
b11010111110011 7
b11010111110011 c
b0010110011 e
b0101100101 10
b0011110111 12
b01000100 13
b10011111 14
#435
0b
#439
1b
#440
b10011101110110 2
b0101100110 5
b0101100110 10
b0011110110 12
b01000101 13
b10011101 14
#443
0b
#447
1b
#448
b10011011110111 2
b11010111110100 4
b0101100111 5
b11010111110100 7
b11010111110100 c
b0010110100 e
b0101100111 10
b0011110101 12
b01000111 13
b10011011 14
#451
0b
#455
1b
#456
b10011001111000 2
b0101101000 5
b0101101000 10
b0011110100 12
b01001001 13
b10011001 14
#459
0b
#463
1b
#464
b10010111111001 2
b11010111110101 4
b0101101001 5
b11010111110101 7
b11010111110101 c
b0010110101 e
b0101101001 10
b0011110011 12
b01001011 13
b10010111 14
#467
0b
#471
1b
#472
b10010101111010 2
b0101101010 5
b0101101010 10
b0011110010 12
b01000100 13
b10010101 14
#475
0b
#479
1b
#480
b10010011111011 2
b11010111110110 4
b0101101011 5
b11010111110110 7
b11010111110110 c
b0010110110 e
b0101101011 10
b0011110001 12
b01000110 13
b10010011 14
#483
0b
#487
1b
#488
b10000111111100 2
b0101101100 5
b0101101100 10
b0011110000 12
b01001001 13
b10000111 14
#491
0b
#495
1b
#496
b10000101111101 2
b11010111110111 4
b0101101101 5
b11010111110111 7
b11010111110111 c
b0010110111 e
b0101101101 10
b0011101111 12
b01001011 13
b10000101 14
#499
0b
#503
1b
#504
b10000011111110 2
b0101101110 5
b0101101110 10
b0011101110 12
b01001110 13
b10000011 14
#507
0b
#511
1b
#512
b00010 1
b10000001111111 2
b11010111111000 4
b0101101111 5
b11010111111000 7
b11010111111000 c
b0010111000 e
b0101101111 10
b0011101101 12
b01010001 13
b10000001 14
#515
0b
#519
1b
#520
b01111110000000 2
b0101110000 5
b0101110000 10
b0011101100 12
b01010100 13
b01111110 14
#523
0b
#527
1b
#528
b01111100000001 2
b11010111111001 4
b0101110001 5
b11010111111001 7
b11010111111001 c
b0010111001 e
b0101110001 10
b0011101011 12
b01010111 13
b01111100 14
#531
0b
#535
1b
#536
b01111010000010 2
b0101110010 5
b0101110010 10
b0011101010 12
b01011011 13
b01111010 14
#539
0b
#543
1b
#544
b01111000000011 2
b11010111111010 4
b0101110011 5
b11010111111010 7
b11010111111010 c
b0010111010 e
b0101110011 10
b0011101001 12
b01011110 13
b01111000 14
#547
0b
#551
1b
#552
b01110110000100 2
b0101110100 5
b0101110100 10
b0011101000 12
b01010111 13
b01110110 14
#555
0b
#559
1b
#560
b01110100000101 2
b11010111111011 4
b0101110101 5
b11010111111011 7
b11010111111011 c
b0010111011 e
b0101110101 10
b0011100111 12
b01011011 13
b01110100 14
#563
0b
#567
1b
#568
b01101000000110 2
b0101110110 5
b0101110110 10
b0011100110 12
b01011111 13
b01101000 14
#571
0b
#575
1b
#576
b01100110000111 2
b11010111111100 4
b0101110111 5
b11010111111100 7
b11010111111100 c
b0010111100 e
b0101110111 10
b0011100101 12
b01100010 13
b01100110 14
#579
0b
#583
1b
#584
b01100100001000 2
b0101111000 5
b0101111000 10
b0011100100 12
b01100110 13
b01100100 14
#587
0b
#591
1b
#592
b01100010001001 2
b11010111111101 4
b0101111001 5
b11010111111101 7
b11010111111101 c
b0010111101 e
b0101111001 10
b0011100011 12
b01101010 13
b01100010 14
#595
0b
#599
1b
#600
b01100001001010 2
b0101111010 5
b0101111010 10
b0011100010 12
b01101110 13
b01100001 14
#603
0b
#607
1b
#608
b01011111001011 2
b11010111111110 4
b0101111011 5
b11010111111110 7
b11010111111110 c
b0010111110 e
b0101111011 10
b0011100001 12
b01110010 13
b01011111 14
#611
0b
#615
1b
#616
b01011101001100 2
b0101111100 5
b0101111100 10
b0011100000 12
b01110110 13
b01011101 14
#619
0b
#623
1b
#624
b01011100001101 2
b11010111111111 4
b0101111101 5
b11010111111111 7
b11010111111111 c
b0010111111 e
b0101111101 10
b0011011111 12
b01111010 13
b01011100 14
#627
0b
#631
1b
#632
b01011011001110 2
b0101111110 5
b0101111110 10
b0011011110 12
b01110100 13
b01011011 14
#635
0b
#639
1b
#640
b01000 0
b01011001001111 2
b11010111000000 4
b0101111111 5
b11010111000000 7
b01000 9
b11010111000000 c
b011 d
b0011000000 e
b0101111111 10
b0011011101 12
b01111000 13
b01011001 14
#643
0b
#647
1b
#648
b01001110010000 2
b0110000000 5
b0110000000 10
b0011011100 12
b01111100 13
b01001110 14
#651
0b
#655
1b
#656
b01001101010001 2
b11010111000001 4
b0110000001 5
b11010111000001 7
b11010111000001 c
b0011000001 e
b0110000001 10
b0011011011 12
b10000001 13
b01001101 14
#659
0b
#663
1b
#664
b01001100010010 2
b0110000010 5
b0110000010 10
b0011011010 12
b10000101 13
b01001100 14
#667
0b
#671
1b
#672
b01001011010011 2
b11010111000010 4
b0110000011 5
b11010111000010 7
b11010111000010 c
b0011000010 e
b0110000011 10
b0011011001 12
b10001001 13
b01001011 14
#675
0b
#679
1b
#680
b01001011010100 2
b0110000100 5
b0110000100 10
b0011011000 12
b10001101 13
#683
0b
#687
1b
#688
b01001010010101 2
b11010111000011 4
b0110000101 5
b11010111000011 7
b11010111000011 c
b0011000011 e
b0110000101 10
b0011010111 12
b10010001 13
b01001010 14
#691
0b
#695
1b
#696
b01001010010110 2
b0110000110 5
b0110000110 10
b0011010110 12
b10010101 13
#699
0b
#703
1b
#704
b01001001010111 2
b11010111000100 4
b0110000111 5
b11010111000100 7
b11010111000100 c
b0011000100 e
b0110000111 10
b0011010101 12
b10011001 13
b01001001 14
#707
0b
#711
1b
#712
b01001001011000 2
b0110001000 5
b0110001000 10
b0011010100 12
b10010011 13
#715
0b
#719
1b
#720
b01001001011001 2
b11010111000101 4
b0110001001 5
b11010111000101 7
b11010111000101 c
b0011000101 e
b0110001001 10
b0011010011 12
b10010111 13
#723
0b
#727
1b
#728
b00111111011010 2
b0110001010 5
b0110001010 10
b0011010010 12
b10011011 13
b00111111 14
#731
0b
#735
1b
#736
b01000000011011 2
b11010111000110 4
b0110001011 5
b11010111000110 7
b11010111000110 c
b0011000110 e
b0110001011 10
b0011010001 12
b10011111 13
b01000000 14
#739
0b
#743
1b
#744
b01000000011100 2
b0110001100 5
b0110001100 10
b0011010000 12
b10100010 13
#747
0b
#751
1b
#752
b01000001011101 2
b11010111000111 4
b0110001101 5
b11010111000111 7
b11010111000111 c
b0011000111 e
b0110001101 10
b0011001111 12
b10100110 13
b01000001 14
#755
0b
#759
1b
#760
b01000010011110 2
b0110001110 5
b0110001110 10
b0011001110 12
b10101010 13
b01000010 14
#763
0b
#767
1b
#768
b01000011011111 2
b11010111001000 4
b0110001111 5
b11010111001000 7
b11010111001000 c
b0011001000 e
b0110001111 10
b0011001101 12
b10101101 13
b01000011 14
#771
0b
#775
1b
#776
b01000100100000 2
b0110010000 5
b0110010000 10
b0011001100 12
b10110000 13
b01000100 14
#779
0b
#783
1b
#784
b01000101100001 2
b11010111001001 4
b0110010001 5
b11010111001001 7
b11010111001001 c
b0011001001 e
b0110010001 10
b0011001011 12
b10110100 13
b01000101 14
#787
0b
#791
1b
#792
b01000110100010 2
b0110010010 5
b0110010010 10
b0011001010 12
b10101101 13
b01000110 14
#795
0b
#799
1b
#800
b01001000100011 2
b11010111001010 4
b0110010011 5
b11010111001010 7
b11010111001010 c
b0011001010 e
b0110010011 10
b0011001001 12
b10110000 13
b01001000 14
#803
0b
#807
1b
#808
b00111111100100 2
b0110010100 5
b0110010100 10
b0011001000 12
b10110011 13
b00111111 14
#811
0b
#815
1b
#816
b01000001100101 2
b11010111001011 4
b0110010101 5
b11010111001011 7
b11010111001011 c
b0011001011 e
b0110010101 10
b0011000111 12
b10110110 13
b01000001 14
#819
0b
#823
1b
#824
b01000011100110 2
b0110010110 5
b0110010110 10
b0011000110 12
b10111000 13
b01000011 14
#827
0b
#831
1b
#832
b01000101100111 2
b11010111001100 4
b0110010111 5
b11010111001100 7
b11010111001100 c
b0011001100 e
b0110010111 10
b0011000101 12
b10111011 13
b01000101 14
#835
0b
#839
1b
#840
b01001000101000 2
b0110011000 5
b0110011000 10
b0011000100 12
b10111101 13
b01001000 14
#843
0b
#847
1b
#848
b01001010101001 2
b11010111001101 4
b0110011001 5
b11010111001101 7
b11010111001101 c
b0011001101 e
b0110011001 10
b0011000011 12
b11000000 13
b01001010 14
#851
0b
#855
1b
#856
b01001101101010 2
b0110011010 5
b0110011010 10
b0011000010 12
b11000010 13
b01001101 14
#859
0b
#863
1b
#864
b01001111101011 2
b11010111001110 4
b0110011011 5
b11010111001110 7
b11010111001110 c
b0011001110 e
b0110011011 10
b0011000001 12
b11000100 13
b01001111 14
#867
0b
#871
1b
#872
b01010010101100 2
b0110011100 5
b0110011100 10
b0011000000 12
b10111100 13
b01010010 14
#875
0b
#879
1b
#880
b01010101101101 2
b11010111001111 4
b0110011101 5
b11010111001111 7
b11010111001111 c
b0011001111 e
b0110011101 10
b0010111111 12
b10111101 13
b01010101 14
#883
0b
#887
1b
#888
b01001110101110 2
b0110011110 5
b0110011110 10
b0010111110 12
b10111111 13
b01001110 14
#891
0b
#895
1b
#896
b01010001101111 2
b11010111010000 4
b0110011111 5
b11010111010000 7
b11010111010000 c
b0011010000 e
b0110011111 10
b0010111101 12
b11000000 13
b01010001 14
#899
0b
#903
1b
#904
b01010101110000 2
b0110100000 5
b0110100000 10
b0010111100 12
b11000001 13
b01010101 14
#907
0b
#911
1b
#912
b01011000110001 2
b11010111010001 4
b0110100001 5
b11010111010001 7
b11010111010001 c
b0011010001 e
b0110100001 10
b0010111011 12
b11000011 13
b01011000 14
#915
0b
#919
1b
#920
b01011011110010 2
b0110100010 5
b0110100010 10
b0010111010 12
b01011011 14
#923
0b
#927
1b
#928
b01011111110011 2
b11010111010010 4
b0110100011 5
b11010111010010 7
b11010111010010 c
b0011010010 e
b0110100011 10
b0010111001 12
b11000100 13
b01011111 14
#931
0b
#935
1b
#936
b01100011110100 2
b0110100100 5
b0110100100 10
b0010111000 12
b11000101 13
b01100011 14
#939
0b
#943
1b
#944
b01100110110101 2
b11010111010011 4
b0110100101 5
b11010111010011 7
b11010111010011 c
b0011010011 e
b0110100101 10
b0010110111 12
b01100110 14
#947
0b
#951
1b
#952
b01101010110110 2
b0110100110 5
b0110100110 10
b0010110110 12
b10111100 13
b01101010 14
#955
0b
#959
1b
#960
b01101110110111 2
b11010111010100 4
b0110100111 5
b11010111010100 7
b11010111010100 c
b0011010100 e
b0110100111 10
b0010110101 12
b01101110 14
#963
0b
#967
1b
#968
b01101000111000 2
b0110101000 5
b0110101000 10
b0010110100 12
b01101000 14
#971
0b
#975
1b
#976
b01101100111001 2
b11010111010101 4
b0110101001 5
b11010111010101 7
b11010111010101 c
b0011010101 e
b0110101001 10
b0010110011 12
b01101100 14
#979
0b
#983
1b
#984
b01110000111010 2
b0110101010 5
b0110101010 10
b0010110010 12
b10111011 13
b01110000 14
#987
0b
#991
1b
#992
b01110100111011 2
b11010111010110 4
b0110101011 5
b11010111010110 7
b11010111010110 c
b0011010110 e
b0110101011 10
b0010110001 12
b01110100 14
#995
0b
#999
1b
#1000
b01111000111100 2
b0110101100 5
b0110101100 10
b0010110000 12
b10111010 13
b01111000 14
#1003
0b
#1007
1b
#1008
b01111100111101 2
b11010111010111 4
b0110101101 5
b11010111010111 7
b11010111010111 c
b0011010111 e
b0110101101 10
b0010101111 12
b01111100 14
#1011
0b
#1015
1b
#1016
b10000000111110 2
b0110101110 5
b0110101110 10
b0010101110 12
b10111001 13
b10000000 14
#1019
0b
#1023
1b
#1024
b00100 1
b10000101111111 2
b11010111011000 4
b0110101111 5
b11010111011000 7
b11010111011000 c
b0011011000 e
b0110101111 10
b0010101101 12
b10111000 13
b10000101 14
#1027
0b
#1031
1b
#1032
b10001001000000 2
b0110110000 5
b0110110000 10
b0010101100 12
b10101101 13
b10001001 14
#1035
0b
#1039
1b
#1040
b10001101000001 2
b11010111011001 4
b0110110001 5
b11010111011001 7
b11010111011001 c
b0011011001 e
b0110110001 10
b0010101011 12
b10101100 13
b10001101 14
#1043
0b
#1047
1b
#1048
b10000111000010 2
b0110110010 5
b0110110010 10
b0010101010 12
b10101010 13
b10000111 14
#1051
0b
#1055
1b
#1056
b10001011000011 2
b11010111011010 4
b0110110011 5
b11010111011010 7
b11010111011010 c
b0011011010 e
b0110110011 10
b0010101001 12
b10101001 13
b10001011 14
#1059
0b
#1063
1b
#1064
b10001111000100 2
b0110110100 5
b0110110100 10
b0010101000 12
b10101000 13
b10001111 14
#1067
0b
#1071
1b
#1072
b10010011000101 2
b11010111011011 4
b0110110101 5
b11010111011011 7
b11010111011011 c
b0011011011 e
b0110110101 10
b0010100111 12
b10100110 13
b10010011 14
#1075
0b
#1079
1b
#1080
b10010111000110 2
b0110110110 5
b0110110110 10
b0010100110 12
b10100100 13
b10010111 14
#1083
0b
#1087
1b
#1088
b10011011000111 2
b11010111011100 4
b0110110111 5
b11010111011100 7
b11010111011100 c
b0011011100 e
b0110110111 10
b0010100101 12
b10100011 13
b10011011 14
#1091
0b
#1095
1b
#1096
b10011111001000 2
b0110111000 5
b0110111000 10
b0010100100 12
b10100001 13
b10011111 14
#1099
0b
#1103
1b
#1104
b10100011001001 2
b11010111011101 4
b0110111001 5
b11010111011101 7
b11010111011101 c
b0011011101 e
b0110111001 10
b0010100011 12
b10011111 13
b10100011 14
#1107
0b
#1111
1b
#1112
b10100110001010 2
b0110111010 5
b0110111010 10
b0010100010 12
b10010011 13
b10100110 14
#1115
0b
#1119
1b
#1120
b10101010001011 2
b11010111011110 4
b0110111011 5
b11010111011110 7
b11010111011110 c
b0011011110 e
b0110111011 10
b0010100001 12
b10010001 13
b10101010 14
#1123
0b
#1127
1b
#1128
b10100100001100 2
b0110111100 5
b0110111100 10
b0010100000 12
b10001111 13
b10100100 14
#1131
0b
#1135
1b
#1136
b10100111001101 2
b11010111011111 4
b0110111101 5
b11010111011111 7
b11010111011111 c
b0011011111 e
b0110111101 10
b0010011111 12
b10001101 13
b10100111 14
#1139
0b
#1143
1b
#1144
b10101010001110 2
b0110111110 5
b0110111110 10
b0010011110 12
b10001011 13
b10101010 14
#1147
0b
#1151
1b
#1152
b10101110001111 2
b11010111100000 4
b0110111111 5
b11010111100000 7
b11010111100000 c
b0011100000 e
b0110111111 10
b0010011101 12
b10001001 13
b10101110 14
#1155
0b
#1159
1b
#1160
b10110001010000 2
b0111000000 5
b0111000000 10
b0010011100 12
b10000111 13
b10110001 14
#1163
0b
#1167
1b
#1168
b10110100010001 2
b11010111100001 4
b0111000001 5
b11010111100001 7
b11010111100001 c
b0011100001 e
b0111000001 10
b0010011011 12
b10000101 13
b10110100 14
#1171
0b
#1175
1b
#1176
b10110111010010 2
b0111000010 5
b0111000010 10
b0010011010 12
b10000010 13
b10110111 14
#1179
0b
#1183
1b
#1184
b10111010010011 2
b11010111100010 4
b0111000011 5
b11010111100010 7
b11010111100010 c
b0011100010 e
b0111000011 10
b0010011001 12
b10000000 13
b10111010 14
#1187
0b
#1191
1b
#1192
b10111100010100 2
b0111000100 5
b0111000100 10
b0010011000 12
b01110100 13
b10111100 14
#1195
0b
#1199
1b
#1200
b10111111010101 2
b11010111100011 4
b0111000101 5
b11010111100011 7
b11010111100011 c
b0011100011 e
b0111000101 10
b0010010111 12
b01110010 13
b10111111 14
#1203
0b
#1207
1b
#1208
b10110111010110 2
b0111000110 5
b0111000110 10
b0010010110 12
b01110000 13
b10110111 14
#1211
0b
#1215
1b
#1216
b10111010010111 2
b11010111100100 4
b0111000111 5
b11010111100100 7
b11010111100100 c
b0011100100 e
b0111000111 10
b0010010101 12
b01101110 13
b10111010 14
#1219
0b
#1223
1b
#1224
b10111100011000 2
b0111001000 5
b0111001000 10
b0010010100 12
b01101100 13
b10111100 14
#1227
0b
#1231
1b
#1232
b10111110011001 2
b11010111100101 4
b0111001001 5
b11010111100101 7
b11010111100101 c
b0011100101 e
b0111001001 10
b0010010011 12
b01101010 13
b10111110 14
#1235
0b
#1239
1b
#1240
b11000000011010 2
b0111001010 5
b0111001010 10
b0010010010 12
b01101000 13
b11000000 14
#1243
0b
#1247
1b
#1248
b11000001011011 2
b11010111100110 4
b0111001011 5
b11010111100110 7
b11010111100110 c
b0011100110 e
b0111001011 10
b0010010001 12
b01100110 13
b11000001 14
#1251
0b
#1255
1b
#1256
b11000011011100 2
b0111001100 5
b0111001100 10
b0010010000 12
b01100101 13
b11000011 14
#1259
0b
#1263
1b
#1264
b11000100011101 2
b11010111100111 4
b0111001101 5
b11010111100111 7
b11010111100111 c
b0011100111 e
b0111001101 10
b0010001111 12
b01100011 13
b11000100 14
#1267
0b
#1271
1b
#1272
b11000101011110 2
b0111001110 5
b0111001110 10
b0010001110 12
b01010111 13
b11000101 14
#1275
0b
#1279
1b
#1280
b11000111011111 2
b11010111101000 4
b0111001111 5
b11010111101000 7
b11010111101000 c
b0011101000 e
b0111001111 10
b0010001101 12
b01010110 13
b11000111 14
#1283
0b
#1287
1b
#1288
b10111101100000 2
b0111010000 5
b0111010000 10
b0010001100 12
b01010101 13
b10111101 14
#1291
0b
#1295
1b
#1296
b10111110100001 2
b11010111101001 4
b0111010001 5
b11010111101001 7
b11010111101001 c
b0011101001 e
b0111010001 10
b0010001011 12
b01010011 13
b10111110 14
#1299
0b
#1303
1b
#1304
b10111111100010 2
b0111010010 5
b0111010010 10
b0010001010 12
b01010010 13
b10111111 14
#1307
0b
#1311
1b
#1312
b10111111100011 2
b11010111101010 4
b0111010011 5
b11010111101010 7
b11010111101010 c
b0011101010 e
b0111010011 10
b0010001001 12
b01010001 13
#1315
0b
#1319
1b
#1320
b11000000100100 2
b0111010100 5
b0111010100 10
b0010001000 12
b01010000 13
b11000000 14
#1323
0b
#1327
1b
#1328
b11000000100101 2
b11010111101011 4
b0111010101 5
b11010111101011 7
b11010111101011 c
b0011101011 e
b0111010101 10
b0010000111 12
b01001111 13
#1331
0b
#1335
1b
#1336
b11000000100110 2
b0111010110 5
b0111010110 10
b0010000110 12
#1339
0b
#1343
1b
#1344
b11000000100111 2
b11010111101100 4
b0111010111 5
b11010111101100 7
b11010111101100 c
b0011101100 e
b0111010111 10
b0010000101 12
b01001110 13
#1347
0b
#1351
1b
#1352
b10111111101000 2
b0111011000 5
b0111011000 10
b0010000100 12
b01000100 13
b10111111 14
#1355
0b
#1359
1b
#1360
b10111111101001 2
b11010111101101 4
b0111011001 5
b11010111101101 7
b11010111101101 c
b0011101101 e
b0111011001 10
b0010000011 12
b01000011 13
#1363
0b
#1367
1b
#1368
b10110100101010 2
b0111011010 5
b0111011010 10
b0010000010 12
b10110100 14
#1371
0b
#1375
1b
#1376
b10110100101011 2
b11010111101110 4
b0111011011 5
b11010111101110 7
b11010111101110 c
b0011101110 e
b0111011011 10
b0010000001 12
#1379
0b
#1383
1b
#1384
b10110011101100 2
b0111011100 5
b0111011100 10
b0010000000 12
b10110011 14
#1387
0b
#1391
1b
#1392
b10110010101101 2
b11010111101111 4
b0111011101 5
b11010111101111 7
b11010111101111 c
b0011101111 e
b0111011101 10
b0001111111 12
b01000100 13
b10110010 14
#1395
0b
#1399
1b
#1400
b10110001101110 2
b0111011110 5
b0111011110 10
b0001111110 12
b10110001 14
#1403
0b
#1407
1b
#1408
b10110000101111 2
b11010111110000 4
b0111011111 5
b11010111110000 7
b11010111110000 c
b0011110000 e
b0111011111 10
b0001111101 12
b01000101 13
b10110000 14
#1411
0b
#1415
1b
#1416
b10101110110000 2
b0111100000 5
b0111100000 10
b0001111100 12
b01000110 13
b10101110 14
#1419
0b
#1423
1b
#1424
b10101101110001 2
b11010111110001 4
b0111100001 5
b11010111110001 7
b11010111110001 c
b0011110001 e
b0111100001 10
b0001111011 12
b01000111 13
b10101101 14
